[
  {
    "no": 1,
    "Category": "30 and Below",
    "unit": "Num of Partisipants",
    "Value": 20,
    "color": "#f28e2b"
  },
  {
    "no": 2,
    "Category": "31-40",
    "unit": "Num of Partisipants",
    "Value": 35,
    "color": "#f28e2b"
  },
  {
    "no": 2,
    "Category": "41-50",
    "unit": "Num of Partisipants",
    "Value": 37,
    "color": "#f28e2b"
  },
  {
    "no": 2,
    "Category": "50 and Above",
    "unit": "Num of Partisipants",
    "Value": 14,
    "color": "#f28e2b"
  }
]