[
  {
    "no": 1,
    "Category": "F",
    "unit": "Num of Partisipants",
    "Value": 62,
    "color": "#f17b79"
  },
  {
    "no": 2,
    "Category": "M",
    "unit": "Num of Partisipants",
    "Value": 59,
    "color": "#f17b79"
  }
]