[
  {
    "no": 1,
    "Category": "Temp too Hot",
    "unit": "Num of Partisipants",
    "Value": 7,
    "color": "#4e79a7"
  },
  {
    "no": 2,
    "Category": "Temp too Cold",
    "unit": "Num of Partisipants",
    "Value": 46,
    "color": "#4e79a7"
  },
  {
    "no": 3,
    "Category": "Humidity too Hight (Damp)",
    "unit": "Num of Partisipants",
    "Value": 1,
    "color": "#4e79a7"
  },{
    "no": 4,
    "Category": "Humidity too Low (Dry)",
    "unit": "Num of Partisipants",
    "Value": 8,
    "color": "#4e79a7"
  },
  {
    "no": 5,
    "Category": "Air movement too Hight",
    "unit": "Num of Partisipants",
    "Value": 1,
    "color": "#4e79a7"
  },
  {
    "no": 6,
    "Category": "Air movement too Low",
    "unit": "Num of Partisipants",
    "Value": 15,
    "color": "#4e79a7"
  },
  {
    "no": 7,
    "Category": "Incoming Sun",
    "unit": "Num of Partisipants",
    "Value": 4,
    "color": "#4e79a7"
  },
  {
    "no": 8,
    "Category": "Heat from Equipment",
    "unit": "Num of Partisipants",
    "Value": 2,
    "color": "#4e79a7"
  },
  {
    "no": 9,
    "Category": "Uneven Temp",
    "unit": "Num of Partisipants",
    "Value": 42,
    "color": "#4e79a7"
  },
  {
    "no": 10,
    "Category": "Hot/Cold Surrounding surface",
    "unit": "Num of Partisipants",
    "Value": 3,
    "color": "#4e79a7"
  },
  {
    "no": 11,
    "Category": "Slow response to Thermalstat",
    "unit": "Num of Partisipants",
    "Value": 6,
    "color": "#4e79a7"
  }
]