[
  {
    "no": 1,
    "dis": "3",
    "unit": "Num of Partisipants",
    "Current": 1,
	"color": "#a70000"
  },
  {
    "no": 2,
    "dis": "2",
    "unit": "Num of Partisipants",
    "Current": 3,
	"color": "#ba3e3e"
  },
  {
    "no": 3,
    "dis": "1",
    "unit": "Num of Partisipants",
    "Current": 12,
	  "color": "#c98686"
  },
  {
    "no": 4,
    "dis": "0",
    "unit": "Num of Partisipants",
    "Current": 26,
	"color": "#9898e5"
  },
  {
    "no": 5,
    "dis": "-1",
    "unit": "Num of Partisipants",
    "Current": 26,
	"color": "#c88686"
  },
  {
    "no": 6,
    "dis": "-2",
    "unit": "Num of Partisipants",
    "Current": 24,
	"color": "#5050f2"
  },
  {
    "no": 7,
    "dis": "-3",
    "unit": "Num of Partisipants",
    "Current": 30,
	"color": "#0000ff"
  }
]