[
  {
    "no": 1,
    "Category": "Window Slide",
    "unit": "Num of Partisipants",
    "Value": 55,
    "color": "#f28e2b"
  },
  {
    "no": 2,
    "Category": "Not Window Slide",
    "unit": "Num of Partisipants",
    "Value": 66,
    "color": "#f28e2b"
  }
]