{
    "asset" : {
        "generator" : "Khronos glTF Blender I/O v0.9.35",
        "version" : "2.0"
    },
    "scene" : 0,
    "scenes" : [
        {
            "name" : "Scene",
            "nodes" : [
                0,
                1,
                2
            ]
        }
    ],
    "nodes" : [
        {
            "name" : "Light",
            "rotation" : [
                0.16907575726509094,
                0.7558803558349609,
                -0.27217137813568115,
                0.570947527885437
            ],
            "translation" : [
                4.076245307922363,
                5.903861999511719,
                -1.0054539442062378
            ]
        },
        {
            "name" : "Camera",
            "rotation" : [
                0.483536034822464,
                0.33687159419059753,
                -0.20870360732078552,
                0.7804827094078064
            ],
            "translation" : [
                7.358891487121582,
                4.958309173583984,
                6.925790786743164
            ]
        },
        {
            "mesh" : 0,
            "name" : "Hitachi Demo",
            "rotation" : [
                0.7071068286895752,
                0,
                0,
                0.7071067094802856
            ]
        }
    ],
    "materials" : [
        {
            "doubleSided" : true,
            "name" : "Color_A01",
            "pbrMetallicRoughness" : {
                "baseColorFactor" : [
                    1,
                    0.800000011920929,
                    0.800000011920929,
                    1
                ],
                "metallicFactor" : 0,
                "roughnessFactor" : 1
            }
        },
        {
            "doubleSided" : true,
            "name" : "Wood_Cherry_Original",
            "pbrMetallicRoughness" : {
                "baseColorFactor" : [
                    0.5960779786109924,
                    0.33725500106811523,
                    0.1647060066461563,
                    1
                ],
                "metallicFactor" : 0,
                "roughnessFactor" : 1
            }
        },
        {
            "doubleSided" : true,
            "name" : "Color_M08",
            "pbrMetallicRoughness" : {
                "baseColorFactor" : [
                    0.11764699965715408,
                    0.11764699965715408,
                    0.11764699965715408,
                    1
                ],
                "metallicFactor" : 0,
                "roughnessFactor" : 1
            }
        },
        {
            "doubleSided" : true,
            "name" : "Leather_Red_Brown",
            "pbrMetallicRoughness" : {
                "baseColorFactor" : [
                    0.2980389893054962,
                    0.1568630039691925,
                    0.031373001635074615,
                    1
                ],
                "metallicFactor" : 0,
                "roughnessFactor" : 1
            }
        },
        {
            "alphaMode" : "BLEND",
            "doubleSided" : true,
            "name" : "Translucent_Glass_Blue",
            "pbrMetallicRoughness" : {
                "baseColorFactor" : [
                    0.3921569883823395,
                    0.5843139886856079,
                    0.9294120073318481,
                    0.20714282989501953
                ],
                "metallicFactor" : 0,
                "roughnessFactor" : 1
            }
        },
        {
            "doubleSided" : true,
            "name" : "Asphalt_New",
            "pbrMetallicRoughness" : {
                "baseColorFactor" : [
                    0.2627449929714203,
                    0.23529399931430817,
                    0.24313700199127197,
                    1
                ],
                "metallicFactor" : 0,
                "roughnessFactor" : 1
            }
        },
        {
            "doubleSided" : true,
            "name" : "Color_008",
            "pbrMetallicRoughness" : {
                "baseColorFactor" : [
                    0.11764699965715408,
                    0.11764699965715408,
                    0.11764699965715408,
                    1
                ],
                "metallicFactor" : 0,
                "roughnessFactor" : 1
            }
        },
        {
            "doubleSided" : true,
            "name" : "Color_004",
            "pbrMetallicRoughness" : {
                "baseColorFactor" : [
                    0.556863009929657,
                    0.556863009929657,
                    0.556863009929657,
                    1
                ],
                "metallicFactor" : 0,
                "roughnessFactor" : 1
            }
        },
        {
            "doubleSided" : true,
            "name" : "lens",
            "pbrMetallicRoughness" : {
                "baseColorTexture" : {
                    "index" : 0,
                    "texCoord" : 0
                },
                "metallicFactor" : 0,
                "roughnessFactor" : 1
            }
        },
        {
            "doubleSided" : true,
            "name" : "_Fencing_Metal_Straight_1",
            "pbrMetallicRoughness" : {
                "baseColorTexture" : {
                    "index" : 1,
                    "texCoord" : 0
                },
                "metallicFactor" : 0,
                "roughnessFactor" : 1
            }
        },
        {
            "doubleSided" : true,
            "name" : "Color_A06",
            "pbrMetallicRoughness" : {
                "baseColorFactor" : [
                    0.800000011920929,
                    0,
                    0,
                    1
                ],
                "metallicFactor" : 0,
                "roughnessFactor" : 1
            }
        }
    ],
    "meshes" : [
        {
            "name" : "Hitachi Demo",
            "primitives" : [
                {
                    "attributes" : {
                        "POSITION" : 0,
                        "NORMAL" : 1,
                        "TEXCOORD_0" : 2
                    },
                    "indices" : 3,
                    "material" : 0
                },
                {
                    "attributes" : {
                        "POSITION" : 4,
                        "NORMAL" : 5,
                        "TEXCOORD_0" : 6
                    },
                    "indices" : 7,
                    "material" : 1
                },
                {
                    "attributes" : {
                        "POSITION" : 8,
                        "NORMAL" : 9,
                        "TEXCOORD_0" : 10
                    },
                    "indices" : 11,
                    "material" : 2
                },
                {
                    "attributes" : {
                        "POSITION" : 12,
                        "NORMAL" : 13,
                        "TEXCOORD_0" : 14
                    },
                    "indices" : 15,
                    "material" : 3
                },
                {
                    "attributes" : {
                        "POSITION" : 16,
                        "NORMAL" : 17,
                        "TEXCOORD_0" : 18
                    },
                    "indices" : 19,
                    "material" : 4
                },
                {
                    "attributes" : {
                        "POSITION" : 20,
                        "NORMAL" : 21,
                        "TEXCOORD_0" : 22
                    },
                    "indices" : 23,
                    "material" : 5
                },
                {
                    "attributes" : {
                        "POSITION" : 24,
                        "NORMAL" : 25,
                        "TEXCOORD_0" : 26
                    },
                    "indices" : 27,
                    "material" : 6
                },
                {
                    "attributes" : {
                        "POSITION" : 28,
                        "NORMAL" : 29,
                        "TEXCOORD_0" : 30
                    },
                    "indices" : 31,
                    "material" : 7
                },
                {
                    "attributes" : {
                        "POSITION" : 32,
                        "NORMAL" : 33,
                        "TEXCOORD_0" : 34
                    },
                    "indices" : 35,
                    "material" : 8
                },
                {
                    "attributes" : {
                        "POSITION" : 36,
                        "NORMAL" : 37,
                        "TEXCOORD_0" : 38
                    },
                    "indices" : 39,
                    "material" : 9
                },
                {
                    "attributes" : {
                        "POSITION" : 40,
                        "NORMAL" : 41,
                        "TEXCOORD_0" : 42
                    },
                    "indices" : 43,
                    "material" : 10
                }
            ]
        }
    ],
    "textures" : [
        {
            "source" : 0
        },
        {
            "source" : 1
        }
    ],
    "images" : [
        {
            "mimeType" : "image/png",
            "name" : "lens",
            "uri" : "lens.png"
        },
        {
            "mimeType" : "image/png",
            "name" : "_Fencing_Metal_Straight_1",
            "uri" : "_Fencing_Metal_Straight_1.png"
        }
    ],
    "accessors" : [
        {
            "bufferView" : 0,
            "componentType" : 5126,
            "count" : 176,
            "max" : [
                5.871699810028076,
                5.605949878692627,
                0.7576000094413757
            ],
            "min" : [
                -7.6220197677612305,
                0.7122570276260376,
                -1.0124000310897827
            ],
            "type" : "VEC3"
        },
        {
            "bufferView" : 1,
            "componentType" : 5126,
            "count" : 176,
            "type" : "VEC3"
        },
        {
            "bufferView" : 2,
            "componentType" : 5126,
            "count" : 176,
            "type" : "VEC2"
        },
        {
            "bufferView" : 3,
            "componentType" : 5123,
            "count" : 348,
            "type" : "SCALAR"
        },
        {
            "bufferView" : 4,
            "componentType" : 5126,
            "count" : 738,
            "max" : [
                2.787209987640381,
                4.804530143737793,
                0.7576000094413757
            ],
            "min" : [
                -5.613840103149414,
                -1.0729899406433105,
                -0.2223999947309494
            ],
            "type" : "VEC3"
        },
        {
            "bufferView" : 5,
            "componentType" : 5126,
            "count" : 738,
            "type" : "VEC3"
        },
        {
            "bufferView" : 6,
            "componentType" : 5126,
            "count" : 738,
            "type" : "VEC2"
        },
        {
            "bufferView" : 7,
            "componentType" : 5123,
            "count" : 1452,
            "type" : "SCALAR"
        },
        {
            "bufferView" : 8,
            "componentType" : 5126,
            "count" : 26,
            "max" : [
                2.16907000541687,
                -1.3694299459457397,
                0.7576000094413757
            ],
            "min" : [
                0.8238059878349304,
                -2.6459500789642334,
                -1.1723999977111816
            ],
            "type" : "VEC3"
        },
        {
            "bufferView" : 9,
            "componentType" : 5126,
            "count" : 26,
            "type" : "VEC3"
        },
        {
            "bufferView" : 10,
            "componentType" : 5126,
            "count" : 26,
            "type" : "VEC2"
        },
        {
            "bufferView" : 11,
            "componentType" : 5123,
            "count" : 42,
            "type" : "SCALAR"
        },
        {
            "bufferView" : 12,
            "componentType" : 5126,
            "count" : 1092,
            "max" : [
                4.721570014953613,
                7.566720008850098,
                0.7576000094413757
            ],
            "min" : [
                -5.1494598388671875,
                -0.8332120180130005,
                0.08759990334510803
            ],
            "type" : "VEC3"
        },
        {
            "bufferView" : 13,
            "componentType" : 5126,
            "count" : 1092,
            "type" : "VEC3"
        },
        {
            "bufferView" : 14,
            "componentType" : 5126,
            "count" : 1092,
            "type" : "VEC2"
        },
        {
            "bufferView" : 15,
            "componentType" : 5123,
            "count" : 2064,
            "type" : "SCALAR"
        },
        {
            "bufferView" : 16,
            "componentType" : 5126,
            "count" : 475,
            "max" : [
                6.571000099182129,
                13.67300033569336,
                1.257599949836731
            ],
            "min" : [
                -9.123510360717773,
                -4.249790191650391,
                -1.7223999500274658
            ],
            "type" : "VEC3"
        },
        {
            "bufferView" : 17,
            "componentType" : 5126,
            "count" : 475,
            "type" : "VEC3"
        },
        {
            "bufferView" : 18,
            "componentType" : 5126,
            "count" : 475,
            "type" : "VEC2"
        },
        {
            "bufferView" : 19,
            "componentType" : 5123,
            "count" : 891,
            "type" : "SCALAR"
        },
        {
            "bufferView" : 20,
            "componentType" : 5126,
            "count" : 336,
            "max" : [
                6.571000099182129,
                12.55090045928955,
                0.7576000094413757
            ],
            "min" : [
                -8.120309829711914,
                -4.249790191650391,
                -1.7223999500274658
            ],
            "type" : "VEC3"
        },
        {
            "bufferView" : 21,
            "componentType" : 5126,
            "count" : 336,
            "type" : "VEC3"
        },
        {
            "bufferView" : 22,
            "componentType" : 5126,
            "count" : 336,
            "type" : "VEC2"
        },
        {
            "bufferView" : 23,
            "componentType" : 5123,
            "count" : 804,
            "type" : "SCALAR"
        },
        {
            "bufferView" : 24,
            "componentType" : 5126,
            "count" : 820,
            "max" : [
                -3.571890115737915,
                1.053689956665039,
                -1.5824999809265137
            ],
            "min" : [
                -3.6827199459075928,
                0.942861020565033,
                -1.6723999977111816
            ],
            "type" : "VEC3"
        },
        {
            "bufferView" : 25,
            "componentType" : 5126,
            "count" : 820,
            "type" : "VEC3"
        },
        {
            "bufferView" : 26,
            "componentType" : 5126,
            "count" : 820,
            "type" : "VEC2"
        },
        {
            "bufferView" : 27,
            "componentType" : 5123,
            "count" : 1278,
            "type" : "SCALAR"
        },
        {
            "bufferView" : 28,
            "componentType" : 5126,
            "count" : 124,
            "max" : [
                -3.571890115737915,
                1.053689956665039,
                -1.6457899808883667
            ],
            "min" : [
                -3.6827199459075928,
                0.942861020565033,
                -1.6723999977111816
            ],
            "type" : "VEC3"
        },
        {
            "bufferView" : 29,
            "componentType" : 5126,
            "count" : 124,
            "type" : "VEC3"
        },
        {
            "bufferView" : 30,
            "componentType" : 5126,
            "count" : 124,
            "type" : "VEC2"
        },
        {
            "bufferView" : 31,
            "componentType" : 5123,
            "count" : 240,
            "type" : "SCALAR"
        },
        {
            "bufferView" : 32,
            "componentType" : 5126,
            "count" : 30,
            "max" : [
                -3.583669900894165,
                1.038390040397644,
                -1.6033999919891357
            ],
            "min" : [
                -3.60971999168396,
                1.0098899602890015,
                -1.6420300006866455
            ],
            "type" : "VEC3"
        },
        {
            "bufferView" : 33,
            "componentType" : 5126,
            "count" : 30,
            "type" : "VEC3"
        },
        {
            "bufferView" : 34,
            "componentType" : 5126,
            "count" : 30,
            "type" : "VEC2"
        },
        {
            "bufferView" : 35,
            "componentType" : 5123,
            "count" : 84,
            "type" : "SCALAR"
        },
        {
            "bufferView" : 36,
            "componentType" : 5126,
            "count" : 4,
            "max" : [
                -3.587480068206787,
                1.0422099828720093,
                -1.6515599489212036
            ],
            "min" : [
                -3.5977799892425537,
                1.0323599576950073,
                -1.668280005455017
            ],
            "type" : "VEC3"
        },
        {
            "bufferView" : 37,
            "componentType" : 5126,
            "count" : 4,
            "type" : "VEC3"
        },
        {
            "bufferView" : 38,
            "componentType" : 5126,
            "count" : 4,
            "type" : "VEC2"
        },
        {
            "bufferView" : 39,
            "componentType" : 5123,
            "count" : 6,
            "type" : "SCALAR"
        },
        {
            "bufferView" : 40,
            "componentType" : 5126,
            "count" : 120,
            "max" : [
                -3.573009967803955,
                1.0200200080871582,
                -1.6511600017547607
            ],
            "min" : [
                -3.580019950866699,
                1.0096399784088135,
                -1.6645699739456177
            ],
            "type" : "VEC3"
        },
        {
            "bufferView" : 41,
            "componentType" : 5126,
            "count" : 120,
            "type" : "VEC3"
        },
        {
            "bufferView" : 42,
            "componentType" : 5126,
            "count" : 120,
            "type" : "VEC2"
        },
        {
            "bufferView" : 43,
            "componentType" : 5123,
            "count" : 210,
            "type" : "SCALAR"
        }
    ],
    "bufferViews" : [
        {
            "buffer" : 0,
            "byteLength" : 2112,
            "byteOffset" : 0
        },
        {
            "buffer" : 0,
            "byteLength" : 2112,
            "byteOffset" : 2112
        },
        {
            "buffer" : 0,
            "byteLength" : 1408,
            "byteOffset" : 4224
        },
        {
            "buffer" : 0,
            "byteLength" : 696,
            "byteOffset" : 5632
        },
        {
            "buffer" : 0,
            "byteLength" : 8856,
            "byteOffset" : 6328
        },
        {
            "buffer" : 0,
            "byteLength" : 8856,
            "byteOffset" : 15184
        },
        {
            "buffer" : 0,
            "byteLength" : 5904,
            "byteOffset" : 24040
        },
        {
            "buffer" : 0,
            "byteLength" : 2904,
            "byteOffset" : 29944
        },
        {
            "buffer" : 0,
            "byteLength" : 312,
            "byteOffset" : 32848
        },
        {
            "buffer" : 0,
            "byteLength" : 312,
            "byteOffset" : 33160
        },
        {
            "buffer" : 0,
            "byteLength" : 208,
            "byteOffset" : 33472
        },
        {
            "buffer" : 0,
            "byteLength" : 84,
            "byteOffset" : 33680
        },
        {
            "buffer" : 0,
            "byteLength" : 13104,
            "byteOffset" : 33764
        },
        {
            "buffer" : 0,
            "byteLength" : 13104,
            "byteOffset" : 46868
        },
        {
            "buffer" : 0,
            "byteLength" : 8736,
            "byteOffset" : 59972
        },
        {
            "buffer" : 0,
            "byteLength" : 4128,
            "byteOffset" : 68708
        },
        {
            "buffer" : 0,
            "byteLength" : 5700,
            "byteOffset" : 72836
        },
        {
            "buffer" : 0,
            "byteLength" : 5700,
            "byteOffset" : 78536
        },
        {
            "buffer" : 0,
            "byteLength" : 3800,
            "byteOffset" : 84236
        },
        {
            "buffer" : 0,
            "byteLength" : 1782,
            "byteOffset" : 88036
        },
        {
            "buffer" : 0,
            "byteLength" : 4032,
            "byteOffset" : 89820
        },
        {
            "buffer" : 0,
            "byteLength" : 4032,
            "byteOffset" : 93852
        },
        {
            "buffer" : 0,
            "byteLength" : 2688,
            "byteOffset" : 97884
        },
        {
            "buffer" : 0,
            "byteLength" : 1608,
            "byteOffset" : 100572
        },
        {
            "buffer" : 0,
            "byteLength" : 9840,
            "byteOffset" : 102180
        },
        {
            "buffer" : 0,
            "byteLength" : 9840,
            "byteOffset" : 112020
        },
        {
            "buffer" : 0,
            "byteLength" : 6560,
            "byteOffset" : 121860
        },
        {
            "buffer" : 0,
            "byteLength" : 2556,
            "byteOffset" : 128420
        },
        {
            "buffer" : 0,
            "byteLength" : 1488,
            "byteOffset" : 130976
        },
        {
            "buffer" : 0,
            "byteLength" : 1488,
            "byteOffset" : 132464
        },
        {
            "buffer" : 0,
            "byteLength" : 992,
            "byteOffset" : 133952
        },
        {
            "buffer" : 0,
            "byteLength" : 480,
            "byteOffset" : 134944
        },
        {
            "buffer" : 0,
            "byteLength" : 360,
            "byteOffset" : 135424
        },
        {
            "buffer" : 0,
            "byteLength" : 360,
            "byteOffset" : 135784
        },
        {
            "buffer" : 0,
            "byteLength" : 240,
            "byteOffset" : 136144
        },
        {
            "buffer" : 0,
            "byteLength" : 168,
            "byteOffset" : 136384
        },
        {
            "buffer" : 0,
            "byteLength" : 48,
            "byteOffset" : 136552
        },
        {
            "buffer" : 0,
            "byteLength" : 48,
            "byteOffset" : 136600
        },
        {
            "buffer" : 0,
            "byteLength" : 32,
            "byteOffset" : 136648
        },
        {
            "buffer" : 0,
            "byteLength" : 12,
            "byteOffset" : 136680
        },
        {
            "buffer" : 0,
            "byteLength" : 1440,
            "byteOffset" : 136692
        },
        {
            "buffer" : 0,
            "byteLength" : 1440,
            "byteOffset" : 138132
        },
        {
            "buffer" : 0,
            "byteLength" : 960,
            "byteOffset" : 139572
        },
        {
            "buffer" : 0,
            "byteLength" : 420,
            "byteOffset" : 140532
        }
    ],
    "buffers" : [
        {
            "byteLength" : 140952,
            "uri" : "3f_room.bin"
        }
    ]
}
