{
    "accessors" : [
        {
            "bufferView" : 0,
            "componentType" : 5123,
            "count" : 906,
            "max" : [
                373
            ],
            "min" : [
                0
            ],
            "type" : "SCALAR"
        },
        {
            "bufferView" : 1,
            "componentType" : 5126,
            "count" : 374,
            "max" : [
                8.440688133239746,
                13.364779472351074,
                8.422927856445312
            ],
            "min" : [
                -8.920307159423828,
                -6.039220809936523,
                -9.070100784301758
            ],
            "type" : "VEC3"
        },
        {
            "bufferView" : 2,
            "componentType" : 5126,
            "count" : 374,
            "max" : [
                1.0,
                1.0,
                1.0
            ],
            "min" : [
                -1.0,
                -1.0,
                -1.0
            ],
            "type" : "VEC3"
        },
        {
            "bufferView" : 3,
            "componentType" : 5126,
            "count" : 374,
            "max" : [
                706.8900146484375,
                360.8030090332031
            ],
            "min" : [
                -706.8900146484375,
                -925.1099853515625
            ],
            "type" : "VEC2"
        },
        {
            "bufferView" : 4,
            "componentType" : 5123,
            "count" : 567,
            "max" : [
                292
            ],
            "min" : [
                0
            ],
            "type" : "SCALAR"
        },
        {
            "bufferView" : 5,
            "componentType" : 5126,
            "count" : 293,
            "max" : [
                4.208893299102783,
                4.4994635581970215,
                1.2583692073822021
            ],
            "min" : [
                -3.388906478881836,
                -5.151576042175293,
                -1.5316317081451416
            ],
            "type" : "VEC3"
        },
        {
            "bufferView" : 6,
            "componentType" : 5126,
            "count" : 293,
            "max" : [
                0.9989318251609802,
                0.9989013075828552,
                1.0
            ],
            "min" : [
                -0.9989318251609802,
                -0.9989013075828552,
                -1.0
            ],
            "type" : "VEC3"
        },
        {
            "bufferView" : 7,
            "componentType" : 5126,
            "count" : 293,
            "max" : [
                13.908100128173828,
                0.9999999999999053
            ],
            "min" : [
                -13.908100128173828,
                -7.6541900634765625
            ],
            "type" : "VEC2"
        },
        {
            "bufferView" : 8,
            "componentType" : 5123,
            "count" : 192,
            "max" : [
                101
            ],
            "min" : [
                0
            ],
            "type" : "SCALAR"
        },
        {
            "bufferView" : 9,
            "componentType" : 5126,
            "count" : 102,
            "max" : [
                0.07500000298023224,
                0.044999998062849045,
                0.00947963073849678
            ],
            "min" : [
                -0.07500000298023224,
                -0.04500000551342964,
                -0.010520368814468384
            ],
            "type" : "VEC3"
        },
        {
            "bufferView" : 10,
            "componentType" : 5126,
            "count" : 102,
            "max" : [
                1.0,
                1.0,
                1.0
            ],
            "min" : [
                -1.0,
                -1.0,
                -0.99932861328125
            ],
            "type" : "VEC3"
        },
        {
            "bufferView" : 11,
            "componentType" : 5126,
            "count" : 102,
            "max" : [
                5.905509948730469,
                3.955090045928955
            ],
            "min" : [
                -5.905509948730469,
                -2.5433099269866943
            ],
            "type" : "VEC2"
        },
        {
            "bufferView" : 12,
            "componentType" : 5123,
            "count" : 7878,
            "max" : [
                4368
            ],
            "min" : [
                0
            ],
            "type" : "SCALAR"
        },
        {
            "bufferView" : 13,
            "componentType" : 5126,
            "count" : 4369,
            "max" : [
                0.07706999033689499,
                -0.08016910403966904,
                0.2453748881816864
            ],
            "min" : [
                -0.10856348276138306,
                -0.49723389744758606,
                0.0017996728420257568
            ],
            "type" : "VEC3"
        },
        {
            "bufferView" : 14,
            "componentType" : 5126,
            "count" : 4369,
            "max" : [
                1.0,
                1.0,
                1.0
            ],
            "min" : [
                -1.0,
                -1.0,
                -1.0
            ],
            "type" : "VEC3"
        },
        {
            "bufferView" : 15,
            "componentType" : 5126,
            "count" : 4369,
            "max" : [
                19.763700485229492,
                20.31999969482422
            ],
            "min" : [
                -19.577499389648438,
                -18.577499389648438
            ],
            "type" : "VEC2"
        },
        {
            "bufferView" : 16,
            "componentType" : 5123,
            "count" : 906,
            "max" : [
                373
            ],
            "min" : [
                0
            ],
            "type" : "SCALAR"
        },
        {
            "bufferView" : 17,
            "componentType" : 5126,
            "count" : 374,
            "max" : [
                8.440688133239746,
                13.364779472351074,
                8.422927856445312
            ],
            "min" : [
                -8.920307159423828,
                -6.039220809936523,
                -9.070100784301758
            ],
            "type" : "VEC3"
        },
        {
            "bufferView" : 18,
            "componentType" : 5126,
            "count" : 374,
            "max" : [
                1.0,
                1.0,
                1.0
            ],
            "min" : [
                -1.0,
                -1.0,
                -1.0
            ],
            "type" : "VEC3"
        },
        {
            "bufferView" : 19,
            "componentType" : 5126,
            "count" : 374,
            "max" : [
                706.8900146484375,
                360.8030090332031
            ],
            "min" : [
                -706.8900146484375,
                -925.1099853515625
            ],
            "type" : "VEC2"
        },
        {
            "bufferView" : 20,
            "componentType" : 5123,
            "count" : 906,
            "max" : [
                373
            ],
            "min" : [
                0
            ],
            "type" : "SCALAR"
        },
        {
            "bufferView" : 21,
            "componentType" : 5126,
            "count" : 374,
            "max" : [
                8.440688133239746,
                13.364779472351074,
                8.422927856445312
            ],
            "min" : [
                -8.920307159423828,
                -6.039220809936523,
                -9.070100784301758
            ],
            "type" : "VEC3"
        },
        {
            "bufferView" : 22,
            "componentType" : 5126,
            "count" : 374,
            "max" : [
                1.0,
                1.0,
                1.0
            ],
            "min" : [
                -1.0,
                -1.0,
                -1.0
            ],
            "type" : "VEC3"
        },
        {
            "bufferView" : 23,
            "componentType" : 5126,
            "count" : 374,
            "max" : [
                706.8900146484375,
                360.8030090332031
            ],
            "min" : [
                -706.8900146484375,
                -925.1099853515625
            ],
            "type" : "VEC2"
        },
        {
            "bufferView" : 24,
            "componentType" : 5123,
            "count" : 7878,
            "max" : [
                4368
            ],
            "min" : [
                0
            ],
            "type" : "SCALAR"
        },
        {
            "bufferView" : 25,
            "componentType" : 5126,
            "count" : 4369,
            "max" : [
                0.07706999033689499,
                -0.08016910403966904,
                0.2453748881816864
            ],
            "min" : [
                -0.10856348276138306,
                -0.49723389744758606,
                0.0017996728420257568
            ],
            "type" : "VEC3"
        },
        {
            "bufferView" : 26,
            "componentType" : 5126,
            "count" : 4369,
            "max" : [
                1.0,
                1.0,
                1.0
            ],
            "min" : [
                -1.0,
                -1.0,
                -1.0
            ],
            "type" : "VEC3"
        },
        {
            "bufferView" : 27,
            "componentType" : 5126,
            "count" : 4369,
            "max" : [
                19.763700485229492,
                20.31999969482422
            ],
            "min" : [
                -19.577499389648438,
                -18.577499389648438
            ],
            "type" : "VEC2"
        },
        {
            "bufferView" : 28,
            "componentType" : 5123,
            "count" : 1428,
            "max" : [
                805
            ],
            "min" : [
                0
            ],
            "type" : "SCALAR"
        },
        {
            "bufferView" : 29,
            "componentType" : 5126,
            "count" : 806,
            "max" : [
                0.06343424320220947,
                0.07340862601995468,
                0.031030435115098953
            ],
            "min" : [
                -0.06007775291800499,
                -0.056591372936964035,
                -0.16896957159042358
            ],
            "type" : "VEC3"
        },
        {
            "bufferView" : 30,
            "componentType" : 5126,
            "count" : 806,
            "max" : [
                1.0,
                1.0,
                1.0
            ],
            "min" : [
                -1.0,
                -1.0,
                -1.0
            ],
            "type" : "VEC3"
        },
        {
            "bufferView" : 31,
            "componentType" : 5126,
            "count" : 806,
            "max" : [
                4.724410057067871,
                2.787369966506958
            ],
            "min" : [
                -4.724410057067871,
                -6.874020099639893
            ],
            "type" : "VEC2"
        },
        {
            "bufferView" : 32,
            "componentType" : 5123,
            "count" : 960,
            "max" : [
                527
            ],
            "min" : [
                0
            ],
            "type" : "SCALAR"
        },
        {
            "bufferView" : 33,
            "componentType" : 5126,
            "count" : 528,
            "max" : [
                2.020843029022217,
                1.651468276977539,
                0.278672993183136
            ],
            "min" : [
                -2.683157444000244,
                -4.249066352844238,
                -0.471327006816864
            ],
            "type" : "VEC3"
        },
        {
            "bufferView" : 34,
            "componentType" : 5126,
            "count" : 528,
            "max" : [
                0.9529709815979004,
                0.9529099464416504,
                1.0
            ],
            "min" : [
                -0.9530930519104004,
                -0.9529404640197754,
                -1.0
            ],
            "type" : "VEC3"
        },
        {
            "bufferView" : 35,
            "componentType" : 5126,
            "count" : 528,
            "max" : [
                1.296929955482483,
                1.246062994003296
            ],
            "min" : [
                -1.296929955482483,
                -0.23030996322631836
            ],
            "type" : "VEC2"
        },
        {
            "bufferView" : 36,
            "componentType" : 5123,
            "count" : 906,
            "max" : [
                373
            ],
            "min" : [
                0
            ],
            "type" : "SCALAR"
        },
        {
            "bufferView" : 37,
            "componentType" : 5126,
            "count" : 374,
            "max" : [
                8.440688133239746,
                13.364779472351074,
                8.422927856445312
            ],
            "min" : [
                -8.920307159423828,
                -6.039220809936523,
                -9.070100784301758
            ],
            "type" : "VEC3"
        },
        {
            "bufferView" : 38,
            "componentType" : 5126,
            "count" : 374,
            "max" : [
                1.0,
                1.0,
                1.0
            ],
            "min" : [
                -1.0,
                -1.0,
                -1.0
            ],
            "type" : "VEC3"
        },
        {
            "bufferView" : 39,
            "componentType" : 5126,
            "count" : 374,
            "max" : [
                706.8900146484375,
                360.8030090332031
            ],
            "min" : [
                -706.8900146484375,
                -925.1099853515625
            ],
            "type" : "VEC2"
        },
        {
            "bufferView" : 40,
            "componentType" : 5123,
            "count" : 1428,
            "max" : [
                805
            ],
            "min" : [
                0
            ],
            "type" : "SCALAR"
        },
        {
            "bufferView" : 41,
            "componentType" : 5126,
            "count" : 806,
            "max" : [
                0.06343424320220947,
                0.07340862601995468,
                0.031030435115098953
            ],
            "min" : [
                -0.06007775291800499,
                -0.056591372936964035,
                -0.16896957159042358
            ],
            "type" : "VEC3"
        },
        {
            "bufferView" : 42,
            "componentType" : 5126,
            "count" : 806,
            "max" : [
                1.0,
                1.0,
                1.0
            ],
            "min" : [
                -1.0,
                -1.0,
                -1.0
            ],
            "type" : "VEC3"
        },
        {
            "bufferView" : 43,
            "componentType" : 5126,
            "count" : 806,
            "max" : [
                4.724410057067871,
                2.787369966506958
            ],
            "min" : [
                -4.724410057067871,
                -6.874020099639893
            ],
            "type" : "VEC2"
        },
        {
            "bufferView" : 44,
            "componentType" : 5123,
            "count" : 192,
            "max" : [
                101
            ],
            "min" : [
                0
            ],
            "type" : "SCALAR"
        },
        {
            "bufferView" : 45,
            "componentType" : 5126,
            "count" : 102,
            "max" : [
                0.07500000298023224,
                0.044999998062849045,
                0.00947963073849678
            ],
            "min" : [
                -0.07500000298023224,
                -0.04500000551342964,
                -0.010520368814468384
            ],
            "type" : "VEC3"
        },
        {
            "bufferView" : 46,
            "componentType" : 5126,
            "count" : 102,
            "max" : [
                1.0,
                1.0,
                1.0
            ],
            "min" : [
                -1.0,
                -1.0,
                -0.99932861328125
            ],
            "type" : "VEC3"
        },
        {
            "bufferView" : 47,
            "componentType" : 5126,
            "count" : 102,
            "max" : [
                5.905509948730469,
                3.955090045928955
            ],
            "min" : [
                -5.905509948730469,
                -2.5433099269866943
            ],
            "type" : "VEC2"
        },
        {
            "bufferView" : 48,
            "componentType" : 5123,
            "count" : 7878,
            "max" : [
                4368
            ],
            "min" : [
                0
            ],
            "type" : "SCALAR"
        },
        {
            "bufferView" : 49,
            "componentType" : 5126,
            "count" : 4369,
            "max" : [
                0.07706999033689499,
                -0.08016910403966904,
                0.2453748881816864
            ],
            "min" : [
                -0.10856348276138306,
                -0.49723389744758606,
                0.0017996728420257568
            ],
            "type" : "VEC3"
        },
        {
            "bufferView" : 50,
            "componentType" : 5126,
            "count" : 4369,
            "max" : [
                1.0,
                1.0,
                1.0
            ],
            "min" : [
                -1.0,
                -1.0,
                -1.0
            ],
            "type" : "VEC3"
        },
        {
            "bufferView" : 51,
            "componentType" : 5126,
            "count" : 4369,
            "max" : [
                19.763700485229492,
                20.31999969482422
            ],
            "min" : [
                -19.577499389648438,
                -18.577499389648438
            ],
            "type" : "VEC2"
        },
        {
            "bufferView" : 52,
            "componentType" : 5123,
            "count" : 192,
            "max" : [
                101
            ],
            "min" : [
                0
            ],
            "type" : "SCALAR"
        },
        {
            "bufferView" : 53,
            "componentType" : 5126,
            "count" : 102,
            "max" : [
                0.07500000298023224,
                0.044999998062849045,
                0.00947963073849678
            ],
            "min" : [
                -0.07500000298023224,
                -0.04500000551342964,
                -0.010520368814468384
            ],
            "type" : "VEC3"
        },
        {
            "bufferView" : 54,
            "componentType" : 5126,
            "count" : 102,
            "max" : [
                1.0,
                1.0,
                1.0
            ],
            "min" : [
                -1.0,
                -1.0,
                -0.99932861328125
            ],
            "type" : "VEC3"
        },
        {
            "bufferView" : 55,
            "componentType" : 5126,
            "count" : 102,
            "max" : [
                5.905509948730469,
                3.955090045928955
            ],
            "min" : [
                -5.905509948730469,
                -2.5433099269866943
            ],
            "type" : "VEC2"
        },
        {
            "bufferView" : 56,
            "componentType" : 5123,
            "count" : 846,
            "max" : [
                417
            ],
            "min" : [
                0
            ],
            "type" : "SCALAR"
        },
        {
            "bufferView" : 57,
            "componentType" : 5126,
            "count" : 418,
            "max" : [
                0.05145709216594696,
                0.04187670350074768,
                0.016954800114035606
            ],
            "min" : [
                -0.04854290932416916,
                -0.05812329798936844,
                -0.023045198991894722
            ],
            "type" : "VEC3"
        },
        {
            "bufferView" : 58,
            "componentType" : 5126,
            "count" : 418,
            "max" : [
                1.0,
                1.0,
                1.0
            ],
            "min" : [
                -1.0,
                -1.0,
                -1.0
            ],
            "type" : "VEC3"
        },
        {
            "bufferView" : 59,
            "componentType" : 5126,
            "count" : 418,
            "max" : [
                3.9370100498199463,
                2.865679979324341
            ],
            "min" : [
                -3.9370100498199463,
                -2.9370100498199463
            ],
            "type" : "VEC2"
        },
        {
            "bufferView" : 60,
            "componentType" : 5123,
            "count" : 192,
            "max" : [
                101
            ],
            "min" : [
                0
            ],
            "type" : "SCALAR"
        },
        {
            "bufferView" : 61,
            "componentType" : 5126,
            "count" : 102,
            "max" : [
                0.07500000298023224,
                0.044999998062849045,
                0.00947963073849678
            ],
            "min" : [
                -0.07500000298023224,
                -0.04500000551342964,
                -0.010520368814468384
            ],
            "type" : "VEC3"
        },
        {
            "bufferView" : 62,
            "componentType" : 5126,
            "count" : 102,
            "max" : [
                1.0,
                1.0,
                1.0
            ],
            "min" : [
                -1.0,
                -1.0,
                -0.99932861328125
            ],
            "type" : "VEC3"
        },
        {
            "bufferView" : 63,
            "componentType" : 5126,
            "count" : 102,
            "max" : [
                5.905509948730469,
                3.955090045928955
            ],
            "min" : [
                -5.905509948730469,
                -2.5433099269866943
            ],
            "type" : "VEC2"
        },
        {
            "bufferView" : 64,
            "componentType" : 5123,
            "count" : 588,
            "max" : [
                295
            ],
            "min" : [
                0
            ],
            "type" : "SCALAR"
        },
        {
            "bufferView" : 65,
            "componentType" : 5126,
            "count" : 296,
            "max" : [
                0.02998029999434948,
                0.02998029999434948,
                0.1719905138015747
            ],
            "min" : [
                -0.02998029999434948,
                -0.02998029999434948,
                -0.18800950050354004
            ],
            "type" : "VEC3"
        },
        {
            "bufferView" : 66,
            "componentType" : 5126,
            "count" : 296,
            "max" : [
                1.0,
                1.0,
                1.0
            ],
            "min" : [
                -1.0,
                -1.0,
                -1.0
            ],
            "type" : "VEC3"
        },
        {
            "bufferView" : 67,
            "componentType" : 5126,
            "count" : 296,
            "max" : [
                1.1803300380706787,
                2.1803300380706787
            ],
            "min" : [
                -1.1803300380706787,
                -13.173199653625488
            ],
            "type" : "VEC2"
        },
        {
            "bufferView" : 68,
            "componentType" : 5123,
            "count" : 23559,
            "max" : [
                4817
            ],
            "min" : [
                0
            ],
            "type" : "SCALAR"
        },
        {
            "bufferView" : 69,
            "componentType" : 5126,
            "count" : 4818,
            "max" : [
                99.9999771118164,
                99.9999771118164,
                61.77626419067383
            ],
            "min" : [
                -100.00000762939453,
                -100.00000762939453,
                -90.38973999023438
            ],
            "type" : "VEC3"
        },
        {
            "bufferView" : 70,
            "componentType" : 5126,
            "count" : 4818,
            "max" : [
                1.0,
                1.0,
                1.0
            ],
            "min" : [
                -1.0,
                -1.0,
                -1.0
            ],
            "type" : "VEC3"
        },
        {
            "bufferView" : 71,
            "componentType" : 5126,
            "count" : 4818,
            "max" : [
                1.0,
                1.0,
                0.9984230995178223,
                1.0
            ],
            "min" : [
                -1.0,
                -1.0,
                -0.9984229207038879,
                -1.0
            ],
            "type" : "VEC4"
        },
        {
            "bufferView" : 72,
            "componentType" : 5126,
            "count" : 4818,
            "max" : [
                1.0,
                1.0
            ],
            "min" : [
                0.0,
                0.0
            ],
            "type" : "VEC2"
        },
        {
            "bufferView" : 73,
            "componentType" : 5123,
            "count" : 1224,
            "max" : [
                757
            ],
            "min" : [
                0
            ],
            "type" : "SCALAR"
        },
        {
            "bufferView" : 74,
            "componentType" : 5126,
            "count" : 758,
            "max" : [
                0.06574146449565887,
                0.045032747089862823,
                0.015413641929626465
            ],
            "min" : [
                -0.05425853654742241,
                -0.04496725648641586,
                -0.024586357176303864
            ],
            "type" : "VEC3"
        },
        {
            "bufferView" : 75,
            "componentType" : 5126,
            "count" : 758,
            "max" : [
                1.0,
                1.0,
                1.0
            ],
            "min" : [
                -1.0,
                -1.0,
                -1.0
            ],
            "type" : "VEC3"
        },
        {
            "bufferView" : 76,
            "componentType" : 5126,
            "count" : 758,
            "max" : [
                4.724410057067871,
                3.6660099029541016
            ],
            "min" : [
                -4.724410057067871,
                -2.5433099269866943
            ],
            "type" : "VEC2"
        },
        {
            "bufferView" : 77,
            "componentType" : 5123,
            "count" : 7878,
            "max" : [
                4368
            ],
            "min" : [
                0
            ],
            "type" : "SCALAR"
        },
        {
            "bufferView" : 78,
            "componentType" : 5126,
            "count" : 4369,
            "max" : [
                0.07706999033689499,
                -0.08016910403966904,
                0.2453748881816864
            ],
            "min" : [
                -0.10856348276138306,
                -0.49723389744758606,
                0.0017996728420257568
            ],
            "type" : "VEC3"
        },
        {
            "bufferView" : 79,
            "componentType" : 5126,
            "count" : 4369,
            "max" : [
                1.0,
                1.0,
                1.0
            ],
            "min" : [
                -1.0,
                -1.0,
                -1.0
            ],
            "type" : "VEC3"
        },
        {
            "bufferView" : 80,
            "componentType" : 5126,
            "count" : 4369,
            "max" : [
                19.763700485229492,
                20.31999969482422
            ],
            "min" : [
                -19.577499389648438,
                -18.577499389648438
            ],
            "type" : "VEC2"
        },
        {
            "bufferView" : 81,
            "componentType" : 5123,
            "count" : 192,
            "max" : [
                101
            ],
            "min" : [
                0
            ],
            "type" : "SCALAR"
        },
        {
            "bufferView" : 82,
            "componentType" : 5126,
            "count" : 102,
            "max" : [
                0.07500000298023224,
                0.044999998062849045,
                0.00947963073849678
            ],
            "min" : [
                -0.07500000298023224,
                -0.04500000551342964,
                -0.010520368814468384
            ],
            "type" : "VEC3"
        },
        {
            "bufferView" : 83,
            "componentType" : 5126,
            "count" : 102,
            "max" : [
                1.0,
                1.0,
                1.0
            ],
            "min" : [
                -1.0,
                -1.0,
                -0.99932861328125
            ],
            "type" : "VEC3"
        },
        {
            "bufferView" : 84,
            "componentType" : 5126,
            "count" : 102,
            "max" : [
                5.905509948730469,
                3.955090045928955
            ],
            "min" : [
                -5.905509948730469,
                -2.5433099269866943
            ],
            "type" : "VEC2"
        },
        {
            "bufferView" : 85,
            "componentType" : 5123,
            "count" : 192,
            "max" : [
                101
            ],
            "min" : [
                0
            ],
            "type" : "SCALAR"
        },
        {
            "bufferView" : 86,
            "componentType" : 5126,
            "count" : 102,
            "max" : [
                0.07500000298023224,
                0.044999998062849045,
                0.00947963073849678
            ],
            "min" : [
                -0.07500000298023224,
                -0.04500000551342964,
                -0.010520368814468384
            ],
            "type" : "VEC3"
        },
        {
            "bufferView" : 87,
            "componentType" : 5126,
            "count" : 102,
            "max" : [
                1.0,
                1.0,
                1.0
            ],
            "min" : [
                -1.0,
                -1.0,
                -0.99932861328125
            ],
            "type" : "VEC3"
        },
        {
            "bufferView" : 88,
            "componentType" : 5126,
            "count" : 102,
            "max" : [
                5.905509948730469,
                3.955090045928955
            ],
            "min" : [
                -5.905509948730469,
                -2.5433099269866943
            ],
            "type" : "VEC2"
        },
        {
            "bufferView" : 89,
            "componentType" : 5123,
            "count" : 1188,
            "max" : [
                599
            ],
            "min" : [
                0
            ],
            "type" : "SCALAR"
        },
        {
            "bufferView" : 90,
            "componentType" : 5126,
            "count" : 600,
            "max" : [
                1.1720682382583618,
                1.691901683807373,
                0.7256497740745544
            ],
            "min" : [
                -1.172131896018982,
                -1.691847801208496,
                -0.024350227788090706
            ],
            "type" : "VEC3"
        },
        {
            "bufferView" : 91,
            "componentType" : 5126,
            "count" : 600,
            "max" : [
                0.999237060546875,
                0.9989623427391052,
                1.0
            ],
            "min" : [
                -0.999237060546875,
                -0.9989623427391052,
                -1.0
            ],
            "type" : "VEC3"
        },
        {
            "bufferView" : 92,
            "componentType" : 5126,
            "count" : 600,
            "max" : [
                5.494100093841553,
                1.0000000000000069
            ],
            "min" : [
                -5.494100093841553,
                -4.052490234375
            ],
            "type" : "VEC2"
        },
        {
            "bufferView" : 93,
            "componentType" : 5123,
            "count" : 192,
            "max" : [
                101
            ],
            "min" : [
                0
            ],
            "type" : "SCALAR"
        },
        {
            "bufferView" : 94,
            "componentType" : 5126,
            "count" : 102,
            "max" : [
                0.07500000298023224,
                0.044999998062849045,
                0.00947963073849678
            ],
            "min" : [
                -0.07500000298023224,
                -0.04500000551342964,
                -0.010520368814468384
            ],
            "type" : "VEC3"
        },
        {
            "bufferView" : 95,
            "componentType" : 5126,
            "count" : 102,
            "max" : [
                1.0,
                1.0,
                1.0
            ],
            "min" : [
                -1.0,
                -1.0,
                -0.99932861328125
            ],
            "type" : "VEC3"
        },
        {
            "bufferView" : 96,
            "componentType" : 5126,
            "count" : 102,
            "max" : [
                5.905509948730469,
                3.955090045928955
            ],
            "min" : [
                -5.905509948730469,
                -2.5433099269866943
            ],
            "type" : "VEC2"
        }
    ],
    "asset" : {
        "generator" : "Khronos Blender glTF 2.0 exporter",
        "version" : "2.0"
    },
    "bufferViews" : [
        {
            "buffer" : 0,
            "byteLength" : 1812,
            "byteOffset" : 0,
            "target" : 34963
        },
        {
            "buffer" : 0,
            "byteLength" : 4488,
            "byteOffset" : 1812,
            "target" : 34962
        },
        {
            "buffer" : 0,
            "byteLength" : 4488,
            "byteOffset" : 6300,
            "target" : 34962
        },
        {
            "buffer" : 0,
            "byteLength" : 2992,
            "byteOffset" : 10788,
            "target" : 34962
        },
        {
            "buffer" : 0,
            "byteLength" : 1134,
            "byteOffset" : 13780,
            "target" : 34963
        },
        {
            "buffer" : 0,
            "byteLength" : 3516,
            "byteOffset" : 14916,
            "target" : 34962
        },
        {
            "buffer" : 0,
            "byteLength" : 3516,
            "byteOffset" : 18432,
            "target" : 34962
        },
        {
            "buffer" : 0,
            "byteLength" : 2344,
            "byteOffset" : 21948,
            "target" : 34962
        },
        {
            "buffer" : 0,
            "byteLength" : 384,
            "byteOffset" : 24292,
            "target" : 34963
        },
        {
            "buffer" : 0,
            "byteLength" : 1224,
            "byteOffset" : 24676,
            "target" : 34962
        },
        {
            "buffer" : 0,
            "byteLength" : 1224,
            "byteOffset" : 25900,
            "target" : 34962
        },
        {
            "buffer" : 0,
            "byteLength" : 816,
            "byteOffset" : 27124,
            "target" : 34962
        },
        {
            "buffer" : 0,
            "byteLength" : 15756,
            "byteOffset" : 27940,
            "target" : 34963
        },
        {
            "buffer" : 0,
            "byteLength" : 52428,
            "byteOffset" : 43696,
            "target" : 34962
        },
        {
            "buffer" : 0,
            "byteLength" : 52428,
            "byteOffset" : 96124,
            "target" : 34962
        },
        {
            "buffer" : 0,
            "byteLength" : 34952,
            "byteOffset" : 148552,
            "target" : 34962
        },
        {
            "buffer" : 0,
            "byteLength" : 1812,
            "byteOffset" : 183504,
            "target" : 34963
        },
        {
            "buffer" : 0,
            "byteLength" : 4488,
            "byteOffset" : 185316,
            "target" : 34962
        },
        {
            "buffer" : 0,
            "byteLength" : 4488,
            "byteOffset" : 189804,
            "target" : 34962
        },
        {
            "buffer" : 0,
            "byteLength" : 2992,
            "byteOffset" : 194292,
            "target" : 34962
        },
        {
            "buffer" : 0,
            "byteLength" : 1812,
            "byteOffset" : 197284,
            "target" : 34963
        },
        {
            "buffer" : 0,
            "byteLength" : 4488,
            "byteOffset" : 199096,
            "target" : 34962
        },
        {
            "buffer" : 0,
            "byteLength" : 4488,
            "byteOffset" : 203584,
            "target" : 34962
        },
        {
            "buffer" : 0,
            "byteLength" : 2992,
            "byteOffset" : 208072,
            "target" : 34962
        },
        {
            "buffer" : 0,
            "byteLength" : 15756,
            "byteOffset" : 211064,
            "target" : 34963
        },
        {
            "buffer" : 0,
            "byteLength" : 52428,
            "byteOffset" : 226820,
            "target" : 34962
        },
        {
            "buffer" : 0,
            "byteLength" : 52428,
            "byteOffset" : 279248,
            "target" : 34962
        },
        {
            "buffer" : 0,
            "byteLength" : 34952,
            "byteOffset" : 331676,
            "target" : 34962
        },
        {
            "buffer" : 0,
            "byteLength" : 2856,
            "byteOffset" : 366628,
            "target" : 34963
        },
        {
            "buffer" : 0,
            "byteLength" : 9672,
            "byteOffset" : 369484,
            "target" : 34962
        },
        {
            "buffer" : 0,
            "byteLength" : 9672,
            "byteOffset" : 379156,
            "target" : 34962
        },
        {
            "buffer" : 0,
            "byteLength" : 6448,
            "byteOffset" : 388828,
            "target" : 34962
        },
        {
            "buffer" : 0,
            "byteLength" : 1920,
            "byteOffset" : 395276,
            "target" : 34963
        },
        {
            "buffer" : 0,
            "byteLength" : 6336,
            "byteOffset" : 397196,
            "target" : 34962
        },
        {
            "buffer" : 0,
            "byteLength" : 6336,
            "byteOffset" : 403532,
            "target" : 34962
        },
        {
            "buffer" : 0,
            "byteLength" : 4224,
            "byteOffset" : 409868,
            "target" : 34962
        },
        {
            "buffer" : 0,
            "byteLength" : 1812,
            "byteOffset" : 414092,
            "target" : 34963
        },
        {
            "buffer" : 0,
            "byteLength" : 4488,
            "byteOffset" : 415904,
            "target" : 34962
        },
        {
            "buffer" : 0,
            "byteLength" : 4488,
            "byteOffset" : 420392,
            "target" : 34962
        },
        {
            "buffer" : 0,
            "byteLength" : 2992,
            "byteOffset" : 424880,
            "target" : 34962
        },
        {
            "buffer" : 0,
            "byteLength" : 2856,
            "byteOffset" : 427872,
            "target" : 34963
        },
        {
            "buffer" : 0,
            "byteLength" : 9672,
            "byteOffset" : 430728,
            "target" : 34962
        },
        {
            "buffer" : 0,
            "byteLength" : 9672,
            "byteOffset" : 440400,
            "target" : 34962
        },
        {
            "buffer" : 0,
            "byteLength" : 6448,
            "byteOffset" : 450072,
            "target" : 34962
        },
        {
            "buffer" : 0,
            "byteLength" : 384,
            "byteOffset" : 456520,
            "target" : 34963
        },
        {
            "buffer" : 0,
            "byteLength" : 1224,
            "byteOffset" : 456904,
            "target" : 34962
        },
        {
            "buffer" : 0,
            "byteLength" : 1224,
            "byteOffset" : 458128,
            "target" : 34962
        },
        {
            "buffer" : 0,
            "byteLength" : 816,
            "byteOffset" : 459352,
            "target" : 34962
        },
        {
            "buffer" : 0,
            "byteLength" : 15756,
            "byteOffset" : 460168,
            "target" : 34963
        },
        {
            "buffer" : 0,
            "byteLength" : 52428,
            "byteOffset" : 475924,
            "target" : 34962
        },
        {
            "buffer" : 0,
            "byteLength" : 52428,
            "byteOffset" : 528352,
            "target" : 34962
        },
        {
            "buffer" : 0,
            "byteLength" : 34952,
            "byteOffset" : 580780,
            "target" : 34962
        },
        {
            "buffer" : 0,
            "byteLength" : 384,
            "byteOffset" : 615732,
            "target" : 34963
        },
        {
            "buffer" : 0,
            "byteLength" : 1224,
            "byteOffset" : 616116,
            "target" : 34962
        },
        {
            "buffer" : 0,
            "byteLength" : 1224,
            "byteOffset" : 617340,
            "target" : 34962
        },
        {
            "buffer" : 0,
            "byteLength" : 816,
            "byteOffset" : 618564,
            "target" : 34962
        },
        {
            "buffer" : 0,
            "byteLength" : 1692,
            "byteOffset" : 619380,
            "target" : 34963
        },
        {
            "buffer" : 0,
            "byteLength" : 5016,
            "byteOffset" : 621072,
            "target" : 34962
        },
        {
            "buffer" : 0,
            "byteLength" : 5016,
            "byteOffset" : 626088,
            "target" : 34962
        },
        {
            "buffer" : 0,
            "byteLength" : 3344,
            "byteOffset" : 631104,
            "target" : 34962
        },
        {
            "buffer" : 0,
            "byteLength" : 384,
            "byteOffset" : 634448,
            "target" : 34963
        },
        {
            "buffer" : 0,
            "byteLength" : 1224,
            "byteOffset" : 634832,
            "target" : 34962
        },
        {
            "buffer" : 0,
            "byteLength" : 1224,
            "byteOffset" : 636056,
            "target" : 34962
        },
        {
            "buffer" : 0,
            "byteLength" : 816,
            "byteOffset" : 637280,
            "target" : 34962
        },
        {
            "buffer" : 0,
            "byteLength" : 1176,
            "byteOffset" : 638096,
            "target" : 34963
        },
        {
            "buffer" : 0,
            "byteLength" : 3552,
            "byteOffset" : 639272,
            "target" : 34962
        },
        {
            "buffer" : 0,
            "byteLength" : 3552,
            "byteOffset" : 642824,
            "target" : 34962
        },
        {
            "buffer" : 0,
            "byteLength" : 2368,
            "byteOffset" : 646376,
            "target" : 34962
        },
        {
            "buffer" : 0,
            "byteLength" : 47118,
            "byteOffset" : 648744,
            "target" : 34963
        },
        {
            "buffer" : 0,
            "byteLength" : 57816,
            "byteOffset" : 695864,
            "target" : 34962
        },
        {
            "buffer" : 0,
            "byteLength" : 57816,
            "byteOffset" : 753680,
            "target" : 34962
        },
        {
            "buffer" : 0,
            "byteLength" : 77088,
            "byteOffset" : 811496,
            "target" : 34962
        },
        {
            "buffer" : 0,
            "byteLength" : 38544,
            "byteOffset" : 888584,
            "target" : 34962
        },
        {
            "buffer" : 0,
            "byteLength" : 2448,
            "byteOffset" : 927128,
            "target" : 34963
        },
        {
            "buffer" : 0,
            "byteLength" : 9096,
            "byteOffset" : 929576,
            "target" : 34962
        },
        {
            "buffer" : 0,
            "byteLength" : 9096,
            "byteOffset" : 938672,
            "target" : 34962
        },
        {
            "buffer" : 0,
            "byteLength" : 6064,
            "byteOffset" : 947768,
            "target" : 34962
        },
        {
            "buffer" : 0,
            "byteLength" : 15756,
            "byteOffset" : 953832,
            "target" : 34963
        },
        {
            "buffer" : 0,
            "byteLength" : 52428,
            "byteOffset" : 969588,
            "target" : 34962
        },
        {
            "buffer" : 0,
            "byteLength" : 52428,
            "byteOffset" : 1022016,
            "target" : 34962
        },
        {
            "buffer" : 0,
            "byteLength" : 34952,
            "byteOffset" : 1074444,
            "target" : 34962
        },
        {
            "buffer" : 0,
            "byteLength" : 384,
            "byteOffset" : 1109396,
            "target" : 34963
        },
        {
            "buffer" : 0,
            "byteLength" : 1224,
            "byteOffset" : 1109780,
            "target" : 34962
        },
        {
            "buffer" : 0,
            "byteLength" : 1224,
            "byteOffset" : 1111004,
            "target" : 34962
        },
        {
            "buffer" : 0,
            "byteLength" : 816,
            "byteOffset" : 1112228,
            "target" : 34962
        },
        {
            "buffer" : 0,
            "byteLength" : 384,
            "byteOffset" : 1113044,
            "target" : 34963
        },
        {
            "buffer" : 0,
            "byteLength" : 1224,
            "byteOffset" : 1113428,
            "target" : 34962
        },
        {
            "buffer" : 0,
            "byteLength" : 1224,
            "byteOffset" : 1114652,
            "target" : 34962
        },
        {
            "buffer" : 0,
            "byteLength" : 816,
            "byteOffset" : 1115876,
            "target" : 34962
        },
        {
            "buffer" : 0,
            "byteLength" : 2376,
            "byteOffset" : 1116692,
            "target" : 34963
        },
        {
            "buffer" : 0,
            "byteLength" : 7200,
            "byteOffset" : 1119068,
            "target" : 34962
        },
        {
            "buffer" : 0,
            "byteLength" : 7200,
            "byteOffset" : 1126268,
            "target" : 34962
        },
        {
            "buffer" : 0,
            "byteLength" : 4800,
            "byteOffset" : 1133468,
            "target" : 34962
        },
        {
            "buffer" : 0,
            "byteLength" : 384,
            "byteOffset" : 1138268,
            "target" : 34963
        },
        {
            "buffer" : 0,
            "byteLength" : 1224,
            "byteOffset" : 1138652,
            "target" : 34962
        },
        {
            "buffer" : 0,
            "byteLength" : 1224,
            "byteOffset" : 1139876,
            "target" : 34962
        },
        {
            "buffer" : 0,
            "byteLength" : 816,
            "byteOffset" : 1141100,
            "target" : 34962
        }
    ],
    "buffers" : [
        {
            "byteLength" : 1141916,
            "uri" : "has_3f_partnership.bin"
        }
    ],
    "materials" : [
        {
            "alphaMode" : "BLEND",
            "extras" : {
                "pbr_export_settings" : {}
            },
            "name" : "_1.001",
            "pbrMetallicRoughness" : {
                "baseColorFactor" : [
                    0.20784300565719604,
                    0.31372499465942383,
                    0.49803900718688965,
                    0.6000000238418579
                ],
                "metallicFactor" : 0.0
            }
        },
        {
            "alphaMode" : "BLEND",
            "extras" : {
                "pbr_export_settings" : {}
            },
            "name" : "_1.002",
            "pbrMetallicRoughness" : {
                "baseColorFactor" : [
                    0.23137299716472626,
                    0.34509798884391785,
                    0.549019992351532,
                    0.6000000238418579
                ],
                "metallicFactor" : 0.0
            }
        },
        {
            "alphaMode" : "BLEND",
            "extras" : {
                "pbr_export_settings" : {}
            },
            "name" : "_1.004",
            "pbrMetallicRoughness" : {
                "baseColorFactor" : [
                    0.23529399931430817,
                    0.34902000427246094,
                    0.556863009929657,
                    0.6000000238418579
                ],
                "metallicFactor" : 0.0
            }
        },
        {
            "alphaMode" : "BLEND",
            "extras" : {
                "pbr_export_settings" : {}
            },
            "name" : "_1.005",
            "pbrMetallicRoughness" : {
                "baseColorFactor" : [
                    0.23137299716472626,
                    0.34509798884391785,
                    0.549019992351532,
                    0.6000000238418579
                ],
                "metallicFactor" : 0.0
            }
        },
        {
            "alphaMode" : "BLEND",
            "extras" : {
                "pbr_export_settings" : {}
            },
            "name" : "_1.006",
            "pbrMetallicRoughness" : {
                "baseColorFactor" : [
                    0.2588239908218384,
                    0.3882350027561188,
                    0.6196079850196838,
                    0.6000000238418579
                ],
                "metallicFactor" : 0.0
            }
        },
        {
            "alphaMode" : "BLEND",
            "extras" : {
                "pbr_export_settings" : {}
            },
            "name" : "_1.007",
            "pbrMetallicRoughness" : {
                "baseColorFactor" : [
                    0.24313700199127197,
                    0.36078399419784546,
                    0.5764709711074829,
                    0.6000000238418579
                ],
                "metallicFactor" : 0.0
            }
        },
        {
            "alphaMode" : "BLEND",
            "extras" : {
                "pbr_export_settings" : {}
            },
            "name" : "_1.008",
            "pbrMetallicRoughness" : {
                "baseColorFactor" : [
                    0.24313700199127197,
                    0.36078399419784546,
                    0.5764709711074829,
                    0.6000000238418579
                ],
                "metallicFactor" : 0.0
            }
        },
        {
            "alphaMode" : "BLEND",
            "extras" : {
                "pbr_export_settings" : {}
            },
            "name" : "_1.009",
            "pbrMetallicRoughness" : {
                "baseColorFactor" : [
                    0.20784300565719604,
                    0.31372499465942383,
                    0.49803900718688965,
                    0.6000000238418579
                ],
                "metallicFactor" : 0.0
            }
        }
    ],
    "meshes" : [
        {
            "name" : "Mesh1 Model.008",
            "primitives" : [
                {
                    "attributes" : {
                        "NORMAL" : 2,
                        "POSITION" : 1,
                        "TEXCOORD_0" : 3
                    },
                    "indices" : 0,
                    "material" : 6
                }
            ]
        },
        {
            "name" : "Mesh238 Level_3_Partnership_Room Level_3 Model",
            "primitives" : [
                {
                    "attributes" : {
                        "NORMAL" : 6,
                        "POSITION" : 5,
                        "TEXCOORD_0" : 7
                    },
                    "indices" : 4
                }
            ]
        },
        {
            "name" : "Mesh1 Model.007",
            "primitives" : [
                {
                    "attributes" : {
                        "NORMAL" : 10,
                        "POSITION" : 9,
                        "TEXCOORD_0" : 11
                    },
                    "indices" : 8,
                    "material" : 3
                }
            ]
        },
        {
            "name" : "Mesh58 Model.003",
            "primitives" : [
                {
                    "attributes" : {
                        "NORMAL" : 14,
                        "POSITION" : 13,
                        "TEXCOORD_0" : 15
                    },
                    "indices" : 12,
                    "material" : 7
                }
            ]
        },
        {
            "name" : "Mesh1 Model.000",
            "primitives" : [
                {
                    "attributes" : {
                        "NORMAL" : 18,
                        "POSITION" : 17,
                        "TEXCOORD_0" : 19
                    },
                    "indices" : 16,
                    "material" : 6
                }
            ]
        },
        {
            "name" : "Mesh1 Model.001",
            "primitives" : [
                {
                    "attributes" : {
                        "NORMAL" : 22,
                        "POSITION" : 21,
                        "TEXCOORD_0" : 23
                    },
                    "indices" : 20,
                    "material" : 6
                }
            ]
        },
        {
            "name" : "Mesh58 Model.002",
            "primitives" : [
                {
                    "attributes" : {
                        "NORMAL" : 26,
                        "POSITION" : 25,
                        "TEXCOORD_0" : 27
                    },
                    "indices" : 24,
                    "material" : 7
                }
            ]
        },
        {
            "name" : "Mesh1 Model.013",
            "primitives" : [
                {
                    "attributes" : {
                        "NORMAL" : 30,
                        "POSITION" : 29,
                        "TEXCOORD_0" : 31
                    },
                    "indices" : 28,
                    "material" : 1
                }
            ]
        },
        {
            "name" : "Mesh303 Chair_109 Level_3 Model",
            "primitives" : [
                {
                    "attributes" : {
                        "NORMAL" : 34,
                        "POSITION" : 33,
                        "TEXCOORD_0" : 35
                    },
                    "indices" : 32
                }
            ]
        },
        {
            "name" : "Mesh1 Model.002",
            "primitives" : [
                {
                    "attributes" : {
                        "NORMAL" : 38,
                        "POSITION" : 37,
                        "TEXCOORD_0" : 39
                    },
                    "indices" : 36,
                    "material" : 6
                }
            ]
        },
        {
            "name" : "Mesh1 Model.004",
            "primitives" : [
                {
                    "attributes" : {
                        "NORMAL" : 42,
                        "POSITION" : 41,
                        "TEXCOORD_0" : 43
                    },
                    "indices" : 40,
                    "material" : 1
                }
            ]
        },
        {
            "name" : "Mesh1 Model.021",
            "primitives" : [
                {
                    "attributes" : {
                        "NORMAL" : 46,
                        "POSITION" : 45,
                        "TEXCOORD_0" : 47
                    },
                    "indices" : 44,
                    "material" : 3
                }
            ]
        },
        {
            "name" : "Mesh58 Model",
            "primitives" : [
                {
                    "attributes" : {
                        "NORMAL" : 50,
                        "POSITION" : 49,
                        "TEXCOORD_0" : 51
                    },
                    "indices" : 48,
                    "material" : 7
                }
            ]
        },
        {
            "name" : "Mesh1 Model.009",
            "primitives" : [
                {
                    "attributes" : {
                        "NORMAL" : 54,
                        "POSITION" : 53,
                        "TEXCOORD_0" : 55
                    },
                    "indices" : 52,
                    "material" : 3
                }
            ]
        },
        {
            "name" : "Mesh1 Model.011",
            "primitives" : [
                {
                    "attributes" : {
                        "NORMAL" : 58,
                        "POSITION" : 57,
                        "TEXCOORD_0" : 59
                    },
                    "indices" : 56,
                    "material" : 4
                }
            ]
        },
        {
            "name" : "Mesh1 Model.019",
            "primitives" : [
                {
                    "attributes" : {
                        "NORMAL" : 62,
                        "POSITION" : 61,
                        "TEXCOORD_0" : 63
                    },
                    "indices" : 60,
                    "material" : 3
                }
            ]
        },
        {
            "name" : "Mesh1 Model.010",
            "primitives" : [
                {
                    "attributes" : {
                        "NORMAL" : 66,
                        "POSITION" : 65,
                        "TEXCOORD_0" : 67
                    },
                    "indices" : 64,
                    "material" : 5
                }
            ]
        },
        {
            "name" : "Cube_2.001",
            "primitives" : [
                {
                    "attributes" : {
                        "NORMAL" : 70,
                        "POSITION" : 69,
                        "TANGENT" : 71,
                        "TEXCOORD_0" : 72
                    },
                    "indices" : 68,
                    "material" : 0
                }
            ]
        },
        {
            "name" : "Mesh1 Model.012",
            "primitives" : [
                {
                    "attributes" : {
                        "NORMAL" : 75,
                        "POSITION" : 74,
                        "TEXCOORD_0" : 76
                    },
                    "indices" : 73,
                    "material" : 2
                }
            ]
        },
        {
            "name" : "Mesh58 Model.001",
            "primitives" : [
                {
                    "attributes" : {
                        "NORMAL" : 79,
                        "POSITION" : 78,
                        "TEXCOORD_0" : 80
                    },
                    "indices" : 77,
                    "material" : 7
                }
            ]
        },
        {
            "name" : "Mesh1 Model.020",
            "primitives" : [
                {
                    "attributes" : {
                        "NORMAL" : 83,
                        "POSITION" : 82,
                        "TEXCOORD_0" : 84
                    },
                    "indices" : 81,
                    "material" : 3
                }
            ]
        },
        {
            "name" : "Mesh1 Model.016",
            "primitives" : [
                {
                    "attributes" : {
                        "NORMAL" : 87,
                        "POSITION" : 86,
                        "TEXCOORD_0" : 88
                    },
                    "indices" : 85,
                    "material" : 3
                }
            ]
        },
        {
            "name" : "Mesh260 Table_1 Level_3 Model",
            "primitives" : [
                {
                    "attributes" : {
                        "NORMAL" : 91,
                        "POSITION" : 90,
                        "TEXCOORD_0" : 92
                    },
                    "indices" : 89
                }
            ]
        },
        {
            "name" : "Mesh1 Model.017",
            "primitives" : [
                {
                    "attributes" : {
                        "NORMAL" : 95,
                        "POSITION" : 94,
                        "TEXCOORD_0" : 96
                    },
                    "indices" : 93,
                    "material" : 3
                }
            ]
        }
    ],
    "nodes" : [
        {
            "name" : "Camera",
            "rotation" : [
                0.49149489402770996,
                0.3053923547267914,
                -0.18920111656188965,
                0.7933291792869568
            ],
            "translation" : [
                24.676143646240234,
                -4.16582727432251,
                8.751609802246094
            ]
        },
        {
            "mesh" : 6,
            "name" : "f03_d-cctv001",
            "rotation" : [
                0.011750291101634502,
                0.7070091366767883,
                -0.7070092558860779,
                0.011750289238989353
            ],
            "scale" : [
                1.8339520692825317,
                1.8339520692825317,
                1.8339520692825317
            ],
            "translation" : [
                1.81911039352417,
                2.7478432655334473,
                3.1983635425567627
            ]
        },
        {
            "mesh" : 3,
            "name" : "f03_d-cctv002",
            "rotation" : [
                0.011750291101634502,
                0.7070091366767883,
                -0.7070092558860779,
                0.011750289238989353
            ],
            "scale" : [
                1.8339520692825317,
                1.8339520692825317,
                1.8339520692825317
            ],
            "translation" : [
                0.2017088383436203,
                2.7478432655334473,
                3.2012417316436768
            ]
        },
        {
            "mesh" : 12,
            "name" : "f03_d-cctv003",
            "rotation" : [
                0.7071006298065186,
                -0.0029589771293103695,
                0.002958977362141013,
                0.7071005702018738
            ],
            "scale" : [
                1.8339520692825317,
                1.8339520692825317,
                1.8339520692825317
            ],
            "translation" : [
                2.0420260429382324,
                2.7478432655334473,
                -3.2702667713165283
            ]
        },
        {
            "mesh" : 19,
            "name" : "f03_d-cctv004",
            "rotation" : [
                0.7070229649543762,
                -0.010891277343034744,
                0.010891279205679893,
                0.7070228457450867
            ],
            "scale" : [
                1.8339521884918213,
                1.8339521884918213,
                1.8339520692825317
            ],
            "translation" : [
                0.26849836111068726,
                2.7478432655334473,
                -3.286043405532837
            ]
        },
        {
            "mesh" : 17,
            "name" : "f03_d-cctv005",
            "rotation" : [
                0.6937354803085327,
                -0.13686159253120422,
                0.13686160743236542,
                0.6937354207038879
            ],
            "scale" : [
                0.0021504766773432493,
                0.0021504766773432493,
                0.0021504766773432493
            ],
            "translation" : [
                1.12532377243042,
                2.514853000640869,
                -0.07098063081502914
            ]
        },
        {
            "mesh" : 10,
            "name" : "f03_d-sensor001",
            "rotation" : [
                -0.706853449344635,
                0.7069684267044067,
                0.018924996256828308,
                0.013984517194330692
            ],
            "scale" : [
                2.3162882328033447,
                2.3162879943847656,
                2.3162879943847656
            ],
            "translation" : [
                -1.5155657529830933,
                2.426105260848999,
                -2.336636543273926
            ]
        },
        {
            "mesh" : 2,
            "name" : "f03_d-sensor002",
            "rotation" : [
                -0.47455185651779175,
                -0.4631156027317047,
                -0.5484287142753601,
                0.509460985660553
            ],
            "scale" : [
                2.0568864345550537,
                2.0568864345550537,
                2.0568864345550537
            ],
            "translation" : [
                -1.5209518671035767,
                2.5145301818847656,
                -2.7300143241882324
            ]
        },
        {
            "mesh" : 13,
            "name" : "f03_d-sensor003",
            "rotation" : [
                -0.47455185651779175,
                -0.4631156027317047,
                -0.5484287142753601,
                0.509460985660553
            ],
            "scale" : [
                2.0568864345550537,
                2.0568864345550537,
                2.0568864345550537
            ],
            "translation" : [
                -1.5130077600479126,
                2.5145301818847656,
                -3.0839593410491943
            ]
        },
        {
            "mesh" : 16,
            "name" : "f03_d-sensor004",
            "rotation" : [
                -0.1349247395992279,
                0.6933507919311523,
                0.6941148042678833,
                0.13879746198654175
            ],
            "scale" : [
                1.0435192584991455,
                1.0435192584991455,
                1.043519377708435
            ],
            "translation" : [
                1.0377099514007568,
                2.5878305435180664,
                0.5030900239944458
            ]
        },
        {
            "mesh" : 14,
            "name" : "f03_d-sensor005",
            "rotation" : [
                0.716079592704773,
                -0.011510438285768032,
                0.007796537596732378,
                0.6978802680969238
            ],
            "scale" : [
                1.7994184494018555,
                1.7994188070297241,
                1.7994188070297241
            ],
            "translation" : [
                1.252915859222412,
                0.8609369397163391,
                -0.08174062520265579
            ]
        },
        {
            "mesh" : 18,
            "name" : "f03_d-sensor006",
            "rotation" : [
                -0.7178897261619568,
                -0.007283895742148161,
                -0.0018020436400547624,
                0.6961164474487305
            ],
            "scale" : [
                1.9438587427139282,
                1.9438587427139282,
                1.9438586235046387
            ],
            "translation" : [
                2.965540647506714,
                2.6678359508514404,
                1.0174038410186768
            ]
        },
        {
            "mesh" : 7,
            "name" : "f03_d-sensor007",
            "rotation" : [
                -0.5111438035964966,
                0.4878544807434082,
                -0.4886021912097931,
                0.5118575096130371
            ],
            "scale" : [
                2.3162882328033447,
                2.3162879943847656,
                2.3162882328033447
            ],
            "translation" : [
                3.0274786949157715,
                2.547335386276245,
                0.6625975966453552
            ]
        },
        {
            "mesh" : 0,
            "name" : "f03_d-smartplug0001",
            "rotation" : [
                0.8556587100028992,
                -0.0008987156325019896,
                0.5175074934959412,
                -0.0057760546915233135
            ],
            "scale" : [
                0.008945378474891186,
                0.008945378474891186,
                0.008945378474891186
            ],
            "translation" : [
                1.299639344215393,
                0.8657757043838501,
                1.5105582475662231
            ]
        },
        {
            "mesh" : 4,
            "name" : "f03_d-smartplug0002",
            "rotation" : [
                0.8556587100028992,
                -0.0008987156325019896,
                0.5175074934959412,
                -0.0057760546915233135
            ],
            "scale" : [
                0.008945378474891186,
                0.008945378474891186,
                0.008945378474891186
            ],
            "translation" : [
                0.8148117065429688,
                0.8657757043838501,
                1.5280972719192505
            ]
        },
        {
            "mesh" : 9,
            "name" : "f03_d-smartplug0003",
            "rotation" : [
                0.8556587100028992,
                -0.0008987156325019896,
                0.5175074934959412,
                -0.0057760546915233135
            ],
            "scale" : [
                0.008945378474891186,
                0.008945378474891186,
                0.008945378474891186
            ],
            "translation" : [
                1.299639344215393,
                0.8657757043838501,
                -0.8341290950775146
            ]
        },
        {
            "mesh" : 5,
            "name" : "f03_d-smartplug0004",
            "rotation" : [
                0.8556587100028992,
                -0.0008987156325019896,
                0.5175074934959412,
                -0.0057760546915233135
            ],
            "scale" : [
                0.008945378474891186,
                0.008945378474891186,
                0.008945378474891186
            ],
            "translation" : [
                0.8148117065429688,
                0.8657757043838501,
                -0.8165900707244873
            ]
        },
        {
            "mesh" : 21,
            "name" : "f03_d-smartswitch001",
            "rotation" : [
                0.5064676403999329,
                0.4979017674922943,
                0.49155962467193604,
                0.5039381384849548
            ],
            "scale" : [
                2.0568864345550537,
                2.056886672973633,
                2.0568864345550537
            ],
            "translation" : [
                3.265087842941284,
                1.8364903926849365,
                2.6217377185821533
            ]
        },
        {
            "mesh" : 23,
            "name" : "f03_d-smartswitch002",
            "rotation" : [
                0.5064676403999329,
                0.4979017674922943,
                0.49155962467193604,
                0.5039381384849548
            ],
            "scale" : [
                2.0568864345550537,
                2.056886672973633,
                2.0568864345550537
            ],
            "translation" : [
                3.2600507736206055,
                1.8364903926849365,
                2.4053914546966553
            ]
        },
        {
            "mesh" : 15,
            "name" : "f03_d-smartswitch003",
            "rotation" : [
                0.5064676403999329,
                0.4979017674922943,
                0.49155962467193604,
                0.5039381384849548
            ],
            "scale" : [
                2.0568864345550537,
                2.056886672973633,
                2.0568864345550537
            ],
            "translation" : [
                3.2583796977996826,
                1.8364903926849365,
                2.17185378074646
            ]
        },
        {
            "mesh" : 20,
            "name" : "f03_d-smartswitch004",
            "rotation" : [
                0.5064676403999329,
                0.4979017674922943,
                0.49155962467193604,
                0.5039381384849548
            ],
            "scale" : [
                2.0568864345550537,
                2.056886672973633,
                2.0568864345550537
            ],
            "translation" : [
                3.258026361465454,
                1.8415086269378662,
                1.9479706287384033
            ]
        },
        {
            "mesh" : 11,
            "name" : "f03_d-smartswitch005",
            "rotation" : [
                0.5064676403999329,
                0.4979017674922943,
                0.49155962467193604,
                0.5039381384849548
            ],
            "scale" : [
                2.0568864345550537,
                2.056886672973633,
                2.0568864345550537
            ],
            "translation" : [
                3.25763201713562,
                1.8364903926849365,
                1.7158678770065308
            ]
        },
        {
            "mesh" : 1,
            "name" : "f03_r-partnership",
            "rotation" : [
                0.10786014050245285,
                0.6988319158554077,
                -0.6988320350646973,
                0.10786012560129166
            ],
            "translation" : [
                1.2922314405441284,
                1.2809038162231445,
                -0.16954344511032104
            ]
        },
        {
            "mesh" : 8,
            "name" : "f03_r-partnership_o-chair",
            "rotation" : [
                0.10786014050245285,
                0.6988319158554077,
                -0.6988320350646973,
                0.10786012560129166
            ],
            "translation" : [
                0.599986732006073,
                0.35121026635169983,
                -2.795109748840332
            ]
        },
        {
            "mesh" : 22,
            "name" : "f03_r-partnership_o-table",
            "rotation" : [
                0.10786014050245285,
                0.6988319158554077,
                -0.6988320350646973,
                0.10786012560129166
            ],
            "translation" : [
                1.0578465461730957,
                0.7981855273246765,
                0.41369855403900146
            ]
        },
        {
            "name" : "Lamp",
            "rotation" : [
                0.179824098944664,
                0.7324448227882385,
                -0.26519274711608887,
                0.6007168889045715
            ],
            "translation" : [
                21.882537841796875,
                -3.6056294441223145,
                0.9904528856277466
            ]
        }
    ],
    "scene" : 0,
    "scenes" : [
        {
            "name" : "Scene",
            "nodes" : [
                15,
                16,
                21,
                20,
                19,
                18,
                17,
                12,
                8,
                2,
                1,
                4,
                14,
                22,
                24,
                23,
                25,
                0,
                13,
                3,
                5,
                6,
                7,
                9,
                10,
                11
            ]
        }
    ]
}
