{
    "accessors" : [
        {
            "bufferView" : 0,
            "componentType" : 5123,
            "count" : 960,
            "max" : [
                527
            ],
            "min" : [
                0
            ],
            "type" : "SCALAR"
        },
        {
            "bufferView" : 1,
            "componentType" : 5126,
            "count" : 528,
            "max" : [
                2.1680448055267334,
                1.6049201488494873,
                0.278672993183136
            ],
            "min" : [
                -2.8318872451782227,
                -4.309769153594971,
                -0.471327006816864
            ],
            "type" : "VEC3"
        },
        {
            "bufferView" : 2,
            "componentType" : 5126,
            "count" : 528,
            "max" : [
                0.9529709815979004,
                0.9529099464416504,
                1.0
            ],
            "min" : [
                -0.9530930519104004,
                -0.9529404640197754,
                -1.0
            ],
            "type" : "VEC3"
        },
        {
            "bufferView" : 3,
            "componentType" : 5126,
            "count" : 528,
            "max" : [
                1.296929955482483,
                1.246062994003296
            ],
            "min" : [
                -1.296929955482483,
                -0.23030996322631836
            ],
            "type" : "VEC2"
        },
        {
            "bufferView" : 4,
            "componentType" : 5123,
            "count" : 906,
            "max" : [
                373
            ],
            "min" : [
                0
            ],
            "type" : "SCALAR"
        },
        {
            "bufferView" : 5,
            "componentType" : 5126,
            "count" : 374,
            "max" : [
                8.440688133239746,
                13.364779472351074,
                8.422927856445312
            ],
            "min" : [
                -8.920307159423828,
                -6.039220809936523,
                -9.070100784301758
            ],
            "type" : "VEC3"
        },
        {
            "bufferView" : 6,
            "componentType" : 5126,
            "count" : 374,
            "max" : [
                1.0,
                1.0,
                1.0
            ],
            "min" : [
                -1.0,
                -1.0,
                -1.0
            ],
            "type" : "VEC3"
        },
        {
            "bufferView" : 7,
            "componentType" : 5126,
            "count" : 374,
            "max" : [
                706.8900146484375,
                360.8030090332031
            ],
            "min" : [
                -706.8900146484375,
                -925.1099853515625
            ],
            "type" : "VEC2"
        },
        {
            "bufferView" : 8,
            "componentType" : 5123,
            "count" : 192,
            "max" : [
                101
            ],
            "min" : [
                0
            ],
            "type" : "SCALAR"
        },
        {
            "bufferView" : 9,
            "componentType" : 5126,
            "count" : 102,
            "max" : [
                0.07500000298023224,
                0.044999998062849045,
                0.00947963073849678
            ],
            "min" : [
                -0.07500000298023224,
                -0.04500000551342964,
                -0.010520368814468384
            ],
            "type" : "VEC3"
        },
        {
            "bufferView" : 10,
            "componentType" : 5126,
            "count" : 102,
            "max" : [
                1.0,
                1.0,
                1.0
            ],
            "min" : [
                -1.0,
                -1.0,
                -0.99932861328125
            ],
            "type" : "VEC3"
        },
        {
            "bufferView" : 11,
            "componentType" : 5126,
            "count" : 102,
            "max" : [
                5.905509948730469,
                3.955090045928955
            ],
            "min" : [
                -5.905509948730469,
                -2.5433099269866943
            ],
            "type" : "VEC2"
        },
        {
            "bufferView" : 12,
            "componentType" : 5123,
            "count" : 906,
            "max" : [
                373
            ],
            "min" : [
                0
            ],
            "type" : "SCALAR"
        },
        {
            "bufferView" : 13,
            "componentType" : 5126,
            "count" : 374,
            "max" : [
                8.440688133239746,
                13.364779472351074,
                8.422927856445312
            ],
            "min" : [
                -8.920307159423828,
                -6.039220809936523,
                -9.070100784301758
            ],
            "type" : "VEC3"
        },
        {
            "bufferView" : 14,
            "componentType" : 5126,
            "count" : 374,
            "max" : [
                1.0,
                1.0,
                1.0
            ],
            "min" : [
                -1.0,
                -1.0,
                -1.0
            ],
            "type" : "VEC3"
        },
        {
            "bufferView" : 15,
            "componentType" : 5126,
            "count" : 374,
            "max" : [
                706.8900146484375,
                360.8030090332031
            ],
            "min" : [
                -706.8900146484375,
                -925.1099853515625
            ],
            "type" : "VEC2"
        },
        {
            "bufferView" : 16,
            "componentType" : 5123,
            "count" : 504,
            "max" : [
                229
            ],
            "min" : [
                0
            ],
            "type" : "SCALAR"
        },
        {
            "bufferView" : 17,
            "componentType" : 5126,
            "count" : 230,
            "max" : [
                0.07892201840877533,
                0.11342394351959229,
                0.02375778742134571
            ],
            "min" : [
                -0.13890410959720612,
                -0.11139149218797684,
                -0.5315985679626465
            ],
            "type" : "VEC3"
        },
        {
            "bufferView" : 18,
            "componentType" : 5126,
            "count" : 230,
            "max" : [
                1.0,
                1.0,
                1.0
            ],
            "min" : [
                -1.0,
                -1.0,
                -1.0
            ],
            "type" : "VEC3"
        },
        {
            "bufferView" : 19,
            "componentType" : 5126,
            "count" : 230,
            "max" : [
                1.0,
                1.0,
                0.3410147428512573,
                1.0
            ],
            "min" : [
                -1.0,
                -1.0,
                -0.341014564037323,
                -1.0
            ],
            "type" : "VEC4"
        },
        {
            "bufferView" : 20,
            "componentType" : 5126,
            "count" : 230,
            "max" : [
                1.0,
                1.0
            ],
            "min" : [
                0.0,
                0.0
            ],
            "type" : "VEC2"
        },
        {
            "bufferView" : 21,
            "componentType" : 5123,
            "count" : 36,
            "max" : [
                23
            ],
            "min" : [
                0
            ],
            "type" : "SCALAR"
        },
        {
            "bufferView" : 22,
            "componentType" : 5126,
            "count" : 24,
            "max" : [
                1.8740320205688477,
                0.6123049259185791,
                1.0
            ],
            "min" : [
                -1.4462254047393799,
                -1.0,
                0.8702163696289062
            ],
            "type" : "VEC3"
        },
        {
            "bufferView" : 23,
            "componentType" : 5126,
            "count" : 24,
            "max" : [
                1.0,
                1.0,
                1.0
            ],
            "min" : [
                -1.0,
                -1.0,
                -1.0
            ],
            "type" : "VEC3"
        },
        {
            "bufferView" : 24,
            "componentType" : 5123,
            "count" : 504,
            "max" : [
                229
            ],
            "min" : [
                0
            ],
            "type" : "SCALAR"
        },
        {
            "bufferView" : 25,
            "componentType" : 5126,
            "count" : 230,
            "max" : [
                0.07892201840877533,
                0.11342394351959229,
                0.02375778742134571
            ],
            "min" : [
                -0.13890410959720612,
                -0.11139149218797684,
                -0.5315985679626465
            ],
            "type" : "VEC3"
        },
        {
            "bufferView" : 26,
            "componentType" : 5126,
            "count" : 230,
            "max" : [
                1.0,
                1.0,
                1.0
            ],
            "min" : [
                -1.0,
                -1.0,
                -1.0
            ],
            "type" : "VEC3"
        },
        {
            "bufferView" : 27,
            "componentType" : 5126,
            "count" : 230,
            "max" : [
                1.0,
                1.0,
                0.3410147428512573,
                1.0
            ],
            "min" : [
                -1.0,
                -1.0,
                -0.341014564037323,
                -1.0
            ],
            "type" : "VEC4"
        },
        {
            "bufferView" : 28,
            "componentType" : 5126,
            "count" : 230,
            "max" : [
                1.0,
                1.0
            ],
            "min" : [
                0.0,
                0.0
            ],
            "type" : "VEC2"
        },
        {
            "bufferView" : 29,
            "componentType" : 5123,
            "count" : 1188,
            "max" : [
                599
            ],
            "min" : [
                0
            ],
            "type" : "SCALAR"
        },
        {
            "bufferView" : 30,
            "componentType" : 5126,
            "count" : 600,
            "max" : [
                1.1720682382583618,
                1.691901683807373,
                0.7256497740745544
            ],
            "min" : [
                -1.172131896018982,
                -1.691847801208496,
                -0.024350227788090706
            ],
            "type" : "VEC3"
        },
        {
            "bufferView" : 31,
            "componentType" : 5126,
            "count" : 600,
            "max" : [
                0.999237060546875,
                0.9989623427391052,
                1.0
            ],
            "min" : [
                -0.999237060546875,
                -0.9989623427391052,
                -1.0
            ],
            "type" : "VEC3"
        },
        {
            "bufferView" : 32,
            "componentType" : 5126,
            "count" : 600,
            "max" : [
                5.494100093841553,
                1.0000000000000069
            ],
            "min" : [
                -5.494100093841553,
                -4.052490234375
            ],
            "type" : "VEC2"
        },
        {
            "bufferView" : 33,
            "componentType" : 5123,
            "count" : 504,
            "max" : [
                229
            ],
            "min" : [
                0
            ],
            "type" : "SCALAR"
        },
        {
            "bufferView" : 34,
            "componentType" : 5126,
            "count" : 230,
            "max" : [
                0.07892201840877533,
                0.11342394351959229,
                0.02375778742134571
            ],
            "min" : [
                -0.13890410959720612,
                -0.11139149218797684,
                -0.5315985679626465
            ],
            "type" : "VEC3"
        },
        {
            "bufferView" : 35,
            "componentType" : 5126,
            "count" : 230,
            "max" : [
                1.0,
                1.0,
                1.0
            ],
            "min" : [
                -1.0,
                -1.0,
                -1.0
            ],
            "type" : "VEC3"
        },
        {
            "bufferView" : 36,
            "componentType" : 5126,
            "count" : 230,
            "max" : [
                1.0,
                1.0,
                0.3410147428512573,
                1.0
            ],
            "min" : [
                -1.0,
                -1.0,
                -0.341014564037323,
                -1.0
            ],
            "type" : "VEC4"
        },
        {
            "bufferView" : 37,
            "componentType" : 5126,
            "count" : 230,
            "max" : [
                1.0,
                1.0
            ],
            "min" : [
                0.0,
                0.0
            ],
            "type" : "VEC2"
        },
        {
            "bufferView" : 38,
            "componentType" : 5123,
            "count" : 192,
            "max" : [
                101
            ],
            "min" : [
                0
            ],
            "type" : "SCALAR"
        },
        {
            "bufferView" : 39,
            "componentType" : 5126,
            "count" : 102,
            "max" : [
                0.07500000298023224,
                0.044999998062849045,
                0.00947963073849678
            ],
            "min" : [
                -0.07500000298023224,
                -0.04500000551342964,
                -0.010520368814468384
            ],
            "type" : "VEC3"
        },
        {
            "bufferView" : 40,
            "componentType" : 5126,
            "count" : 102,
            "max" : [
                1.0,
                1.0,
                1.0
            ],
            "min" : [
                -1.0,
                -1.0,
                -0.99932861328125
            ],
            "type" : "VEC3"
        },
        {
            "bufferView" : 41,
            "componentType" : 5126,
            "count" : 102,
            "max" : [
                5.905509948730469,
                3.955090045928955
            ],
            "min" : [
                -5.905509948730469,
                -2.5433099269866943
            ],
            "type" : "VEC2"
        },
        {
            "bufferView" : 42,
            "componentType" : 5123,
            "count" : 567,
            "max" : [
                292
            ],
            "min" : [
                0
            ],
            "type" : "SCALAR"
        },
        {
            "bufferView" : 43,
            "componentType" : 5126,
            "count" : 293,
            "max" : [
                4.208893299102783,
                4.4994635581970215,
                1.2583692073822021
            ],
            "min" : [
                -3.388906478881836,
                -5.151576042175293,
                -1.5316317081451416
            ],
            "type" : "VEC3"
        },
        {
            "bufferView" : 44,
            "componentType" : 5126,
            "count" : 293,
            "max" : [
                0.9989318251609802,
                0.9989013075828552,
                1.0
            ],
            "min" : [
                -0.9989318251609802,
                -0.9989013075828552,
                -1.0
            ],
            "type" : "VEC3"
        },
        {
            "bufferView" : 45,
            "componentType" : 5126,
            "count" : 293,
            "max" : [
                13.908100128173828,
                0.9999999999999053
            ],
            "min" : [
                -13.908100128173828,
                -7.6541900634765625
            ],
            "type" : "VEC2"
        },
        {
            "bufferView" : 46,
            "componentType" : 5123,
            "count" : 192,
            "max" : [
                101
            ],
            "min" : [
                0
            ],
            "type" : "SCALAR"
        },
        {
            "bufferView" : 47,
            "componentType" : 5126,
            "count" : 102,
            "max" : [
                0.07500000298023224,
                0.044999998062849045,
                0.00947963073849678
            ],
            "min" : [
                -0.07500000298023224,
                -0.04500000551342964,
                -0.010520368814468384
            ],
            "type" : "VEC3"
        },
        {
            "bufferView" : 48,
            "componentType" : 5126,
            "count" : 102,
            "max" : [
                1.0,
                1.0,
                1.0
            ],
            "min" : [
                -1.0,
                -1.0,
                -0.99932861328125
            ],
            "type" : "VEC3"
        },
        {
            "bufferView" : 49,
            "componentType" : 5126,
            "count" : 102,
            "max" : [
                5.905509948730469,
                3.955090045928955
            ],
            "min" : [
                -5.905509948730469,
                -2.5433099269866943
            ],
            "type" : "VEC2"
        },
        {
            "bufferView" : 50,
            "componentType" : 5123,
            "count" : 504,
            "max" : [
                229
            ],
            "min" : [
                0
            ],
            "type" : "SCALAR"
        },
        {
            "bufferView" : 51,
            "componentType" : 5126,
            "count" : 230,
            "max" : [
                0.07892201840877533,
                0.11342394351959229,
                0.02375778742134571
            ],
            "min" : [
                -0.13890410959720612,
                -0.11139149218797684,
                -0.5315985679626465
            ],
            "type" : "VEC3"
        },
        {
            "bufferView" : 52,
            "componentType" : 5126,
            "count" : 230,
            "max" : [
                1.0,
                1.0,
                1.0
            ],
            "min" : [
                -1.0,
                -1.0,
                -1.0
            ],
            "type" : "VEC3"
        },
        {
            "bufferView" : 53,
            "componentType" : 5126,
            "count" : 230,
            "max" : [
                1.0,
                1.0,
                0.3410147428512573,
                1.0
            ],
            "min" : [
                -1.0,
                -1.0,
                -0.341014564037323,
                -1.0
            ],
            "type" : "VEC4"
        },
        {
            "bufferView" : 54,
            "componentType" : 5126,
            "count" : 230,
            "max" : [
                1.0,
                1.0
            ],
            "min" : [
                0.0,
                0.0
            ],
            "type" : "VEC2"
        }
    ],
    "asset" : {
        "generator" : "Khronos Blender glTF 2.0 exporter",
        "version" : "2.0"
    },
    "bufferViews" : [
        {
            "buffer" : 0,
            "byteLength" : 1920,
            "byteOffset" : 0,
            "target" : 34963
        },
        {
            "buffer" : 0,
            "byteLength" : 6336,
            "byteOffset" : 1920,
            "target" : 34962
        },
        {
            "buffer" : 0,
            "byteLength" : 6336,
            "byteOffset" : 8256,
            "target" : 34962
        },
        {
            "buffer" : 0,
            "byteLength" : 4224,
            "byteOffset" : 14592,
            "target" : 34962
        },
        {
            "buffer" : 0,
            "byteLength" : 1812,
            "byteOffset" : 18816,
            "target" : 34963
        },
        {
            "buffer" : 0,
            "byteLength" : 4488,
            "byteOffset" : 20628,
            "target" : 34962
        },
        {
            "buffer" : 0,
            "byteLength" : 4488,
            "byteOffset" : 25116,
            "target" : 34962
        },
        {
            "buffer" : 0,
            "byteLength" : 2992,
            "byteOffset" : 29604,
            "target" : 34962
        },
        {
            "buffer" : 0,
            "byteLength" : 384,
            "byteOffset" : 32596,
            "target" : 34963
        },
        {
            "buffer" : 0,
            "byteLength" : 1224,
            "byteOffset" : 32980,
            "target" : 34962
        },
        {
            "buffer" : 0,
            "byteLength" : 1224,
            "byteOffset" : 34204,
            "target" : 34962
        },
        {
            "buffer" : 0,
            "byteLength" : 816,
            "byteOffset" : 35428,
            "target" : 34962
        },
        {
            "buffer" : 0,
            "byteLength" : 1812,
            "byteOffset" : 36244,
            "target" : 34963
        },
        {
            "buffer" : 0,
            "byteLength" : 4488,
            "byteOffset" : 38056,
            "target" : 34962
        },
        {
            "buffer" : 0,
            "byteLength" : 4488,
            "byteOffset" : 42544,
            "target" : 34962
        },
        {
            "buffer" : 0,
            "byteLength" : 2992,
            "byteOffset" : 47032,
            "target" : 34962
        },
        {
            "buffer" : 0,
            "byteLength" : 1008,
            "byteOffset" : 50024,
            "target" : 34963
        },
        {
            "buffer" : 0,
            "byteLength" : 2760,
            "byteOffset" : 51032,
            "target" : 34962
        },
        {
            "buffer" : 0,
            "byteLength" : 2760,
            "byteOffset" : 53792,
            "target" : 34962
        },
        {
            "buffer" : 0,
            "byteLength" : 3680,
            "byteOffset" : 56552,
            "target" : 34962
        },
        {
            "buffer" : 0,
            "byteLength" : 1840,
            "byteOffset" : 60232,
            "target" : 34962
        },
        {
            "buffer" : 0,
            "byteLength" : 72,
            "byteOffset" : 62072,
            "target" : 34963
        },
        {
            "buffer" : 0,
            "byteLength" : 288,
            "byteOffset" : 62144,
            "target" : 34962
        },
        {
            "buffer" : 0,
            "byteLength" : 288,
            "byteOffset" : 62432,
            "target" : 34962
        },
        {
            "buffer" : 0,
            "byteLength" : 1008,
            "byteOffset" : 62720,
            "target" : 34963
        },
        {
            "buffer" : 0,
            "byteLength" : 2760,
            "byteOffset" : 63728,
            "target" : 34962
        },
        {
            "buffer" : 0,
            "byteLength" : 2760,
            "byteOffset" : 66488,
            "target" : 34962
        },
        {
            "buffer" : 0,
            "byteLength" : 3680,
            "byteOffset" : 69248,
            "target" : 34962
        },
        {
            "buffer" : 0,
            "byteLength" : 1840,
            "byteOffset" : 72928,
            "target" : 34962
        },
        {
            "buffer" : 0,
            "byteLength" : 2376,
            "byteOffset" : 74768,
            "target" : 34963
        },
        {
            "buffer" : 0,
            "byteLength" : 7200,
            "byteOffset" : 77144,
            "target" : 34962
        },
        {
            "buffer" : 0,
            "byteLength" : 7200,
            "byteOffset" : 84344,
            "target" : 34962
        },
        {
            "buffer" : 0,
            "byteLength" : 4800,
            "byteOffset" : 91544,
            "target" : 34962
        },
        {
            "buffer" : 0,
            "byteLength" : 1008,
            "byteOffset" : 96344,
            "target" : 34963
        },
        {
            "buffer" : 0,
            "byteLength" : 2760,
            "byteOffset" : 97352,
            "target" : 34962
        },
        {
            "buffer" : 0,
            "byteLength" : 2760,
            "byteOffset" : 100112,
            "target" : 34962
        },
        {
            "buffer" : 0,
            "byteLength" : 3680,
            "byteOffset" : 102872,
            "target" : 34962
        },
        {
            "buffer" : 0,
            "byteLength" : 1840,
            "byteOffset" : 106552,
            "target" : 34962
        },
        {
            "buffer" : 0,
            "byteLength" : 384,
            "byteOffset" : 108392,
            "target" : 34963
        },
        {
            "buffer" : 0,
            "byteLength" : 1224,
            "byteOffset" : 108776,
            "target" : 34962
        },
        {
            "buffer" : 0,
            "byteLength" : 1224,
            "byteOffset" : 110000,
            "target" : 34962
        },
        {
            "buffer" : 0,
            "byteLength" : 816,
            "byteOffset" : 111224,
            "target" : 34962
        },
        {
            "buffer" : 0,
            "byteLength" : 1134,
            "byteOffset" : 112040,
            "target" : 34963
        },
        {
            "buffer" : 0,
            "byteLength" : 3516,
            "byteOffset" : 113176,
            "target" : 34962
        },
        {
            "buffer" : 0,
            "byteLength" : 3516,
            "byteOffset" : 116692,
            "target" : 34962
        },
        {
            "buffer" : 0,
            "byteLength" : 2344,
            "byteOffset" : 120208,
            "target" : 34962
        },
        {
            "buffer" : 0,
            "byteLength" : 384,
            "byteOffset" : 122552,
            "target" : 34963
        },
        {
            "buffer" : 0,
            "byteLength" : 1224,
            "byteOffset" : 122936,
            "target" : 34962
        },
        {
            "buffer" : 0,
            "byteLength" : 1224,
            "byteOffset" : 124160,
            "target" : 34962
        },
        {
            "buffer" : 0,
            "byteLength" : 816,
            "byteOffset" : 125384,
            "target" : 34962
        },
        {
            "buffer" : 0,
            "byteLength" : 1008,
            "byteOffset" : 126200,
            "target" : 34963
        },
        {
            "buffer" : 0,
            "byteLength" : 2760,
            "byteOffset" : 127208,
            "target" : 34962
        },
        {
            "buffer" : 0,
            "byteLength" : 2760,
            "byteOffset" : 129968,
            "target" : 34962
        },
        {
            "buffer" : 0,
            "byteLength" : 3680,
            "byteOffset" : 132728,
            "target" : 34962
        },
        {
            "buffer" : 0,
            "byteLength" : 1840,
            "byteOffset" : 136408,
            "target" : 34962
        }
    ],
    "buffers" : [
        {
            "byteLength" : 138248,
            "uri" : "has_3f_customer_experience_center.bin"
        }
    ],
    "materials" : [
        {
            "alphaMode" : "BLEND",
            "extras" : {
                "pbr_export_settings" : {}
            },
            "name" : "_1.005",
            "pbrMetallicRoughness" : {
                "baseColorFactor" : [
                    0.23137299716472626,
                    0.34509798884391785,
                    0.549019992351532,
                    0.6000000238418579
                ],
                "metallicFactor" : 0.0
            }
        },
        {
            "alphaMode" : "BLEND",
            "extras" : {
                "pbr_export_settings" : {}
            },
            "name" : "_1.008",
            "pbrMetallicRoughness" : {
                "baseColorFactor" : [
                    0.24313700199127197,
                    0.36078399419784546,
                    0.5764709711074829,
                    0.6000000238418579
                ],
                "metallicFactor" : 0.0
            }
        }
    ],
    "meshes" : [
        {
            "name" : "Mesh303 Chair_109 Level_3 Model.003",
            "primitives" : [
                {
                    "attributes" : {
                        "NORMAL" : 2,
                        "POSITION" : 1,
                        "TEXCOORD_0" : 3
                    },
                    "indices" : 0
                }
            ]
        },
        {
            "name" : "Mesh1 Model.001",
            "primitives" : [
                {
                    "attributes" : {
                        "NORMAL" : 6,
                        "POSITION" : 5,
                        "TEXCOORD_0" : 7
                    },
                    "indices" : 4,
                    "material" : 1
                }
            ]
        },
        {
            "name" : "Mesh1 Model.016",
            "primitives" : [
                {
                    "attributes" : {
                        "NORMAL" : 10,
                        "POSITION" : 9,
                        "TEXCOORD_0" : 11
                    },
                    "indices" : 8,
                    "material" : 0
                }
            ]
        },
        {
            "name" : "Mesh1 Model.000",
            "primitives" : [
                {
                    "attributes" : {
                        "NORMAL" : 14,
                        "POSITION" : 13,
                        "TEXCOORD_0" : 15
                    },
                    "indices" : 12,
                    "material" : 1
                }
            ]
        },
        {
            "name" : "Sphere.002",
            "primitives" : [
                {
                    "attributes" : {
                        "NORMAL" : 18,
                        "POSITION" : 17,
                        "TANGENT" : 19,
                        "TEXCOORD_0" : 20
                    },
                    "indices" : 16
                }
            ]
        },
        {
            "name" : "Cube",
            "primitives" : [
                {
                    "attributes" : {
                        "NORMAL" : 23,
                        "POSITION" : 22
                    },
                    "indices" : 21
                }
            ]
        },
        {
            "name" : "Sphere.000",
            "primitives" : [
                {
                    "attributes" : {
                        "NORMAL" : 26,
                        "POSITION" : 25,
                        "TANGENT" : 27,
                        "TEXCOORD_0" : 28
                    },
                    "indices" : 24
                }
            ]
        },
        {
            "name" : "Mesh260 Table_1 Level_3 Model",
            "primitives" : [
                {
                    "attributes" : {
                        "NORMAL" : 31,
                        "POSITION" : 30,
                        "TEXCOORD_0" : 32
                    },
                    "indices" : 29
                }
            ]
        },
        {
            "name" : "Sphere.001",
            "primitives" : [
                {
                    "attributes" : {
                        "NORMAL" : 35,
                        "POSITION" : 34,
                        "TANGENT" : 36,
                        "TEXCOORD_0" : 37
                    },
                    "indices" : 33
                }
            ]
        },
        {
            "name" : "Mesh1 Model.019",
            "primitives" : [
                {
                    "attributes" : {
                        "NORMAL" : 40,
                        "POSITION" : 39,
                        "TEXCOORD_0" : 41
                    },
                    "indices" : 38,
                    "material" : 0
                }
            ]
        },
        {
            "name" : "Mesh238 Level_3_Partnership_Room Level_3 Model",
            "primitives" : [
                {
                    "attributes" : {
                        "NORMAL" : 44,
                        "POSITION" : 43,
                        "TEXCOORD_0" : 45
                    },
                    "indices" : 42
                }
            ]
        },
        {
            "name" : "Mesh1 Model.017",
            "primitives" : [
                {
                    "attributes" : {
                        "NORMAL" : 48,
                        "POSITION" : 47,
                        "TEXCOORD_0" : 49
                    },
                    "indices" : 46,
                    "material" : 0
                }
            ]
        },
        {
            "name" : "Sphere.125",
            "primitives" : [
                {
                    "attributes" : {
                        "NORMAL" : 52,
                        "POSITION" : 51,
                        "TANGENT" : 53,
                        "TEXCOORD_0" : 54
                    },
                    "indices" : 50
                }
            ]
        }
    ],
    "nodes" : [
        {
            "name" : "Camera",
            "rotation" : [
                0.49149489402770996,
                0.3053923547267914,
                -0.18920111656188965,
                0.7933291792869568
            ],
            "translation" : [
                24.676143646240234,
                -4.16582727432251,
                8.751609802246094
            ]
        },
        {
            "mesh" : 2,
            "name" : "f03_d-cec-smartswitch001",
            "rotation" : [
                0.5064676403999329,
                0.4979017674922943,
                0.49155962467193604,
                0.5039381384849548
            ],
            "scale" : [
                2.0568864345550537,
                2.056886672973633,
                2.0568864345550537
            ],
            "translation" : [
                3.265087842941284,
                1.8364903926849365,
                2.6217377185821533
            ]
        },
        {
            "mesh" : 11,
            "name" : "f03_d-cec-smartswitch002",
            "rotation" : [
                0.5064676403999329,
                0.4979017674922943,
                0.49155962467193604,
                0.5039381384849548
            ],
            "scale" : [
                2.0568864345550537,
                2.056886672973633,
                2.0568864345550537
            ],
            "translation" : [
                3.2600507736206055,
                1.8364903926849365,
                2.048896551132202
            ]
        },
        {
            "mesh" : 9,
            "name" : "f03_d-cec-smartswitch003",
            "rotation" : [
                0.5064676403999329,
                0.4979017674922943,
                0.49155962467193604,
                0.5039381384849548
            ],
            "scale" : [
                2.0568864345550537,
                2.056886672973633,
                2.0568864345550537
            ],
            "translation" : [
                3.2583796977996826,
                1.8364903926849365,
                1.7847949266433716
            ]
        },
        {
            "mesh" : 1,
            "name" : "f03_d-smartplug0001",
            "rotation" : [
                0.8556587100028992,
                -0.0008987156325019896,
                0.5175074934959412,
                -0.0057760546915233135
            ],
            "scale" : [
                0.008945378474891186,
                0.008945378474891186,
                0.008945378474891186
            ],
            "translation" : [
                1.0395989418029785,
                0.8657757043838501,
                -0.2805841267108917
            ]
        },
        {
            "mesh" : 3,
            "name" : "f03_d-smartplug0002",
            "rotation" : [
                0.8556587100028992,
                -0.0008987156325019896,
                0.5175074934959412,
                -0.0057760546915233135
            ],
            "scale" : [
                0.008945378474891186,
                0.008945378474891186,
                0.008945378474891186
            ],
            "translation" : [
                1.058853268623352,
                0.8657757043838501,
                1.2280153036117554
            ]
        },
        {
            "mesh" : 5,
            "name" : "f03_d-smarttv001",
            "translation" : [
                0.4689791202545166,
                1.7460741996765137,
                2.9534146785736084
            ]
        },
        {
            "mesh" : 12,
            "name" : "f03_o-person001",
            "rotation" : [
                0.7071068286895752,
                0.0,
                -0.0,
                0.7071067094802856
            ],
            "scale" : [
                2.9281392097473145,
                2.9281392097473145,
                2.9281392097473145
            ],
            "translation" : [
                1.9734644889831543,
                0.12002430856227875,
                1.3188594579696655
            ]
        },
        {
            "mesh" : 8,
            "name" : "f03_o-person003",
            "rotation" : [
                0.021837793290615082,
                0.7067694664001465,
                -0.706769585609436,
                0.021837789565324783
            ],
            "scale" : [
                2.9281389713287354,
                2.9281389713287354,
                2.9281392097473145
            ],
            "translation" : [
                0.15378479659557343,
                0.13554684817790985,
                -0.3655267357826233
            ]
        },
        {
            "mesh" : 6,
            "name" : "f03_o-person004",
            "rotation" : [
                0.7071068286895752,
                0.0,
                -0.0,
                0.7071067094802856
            ],
            "scale" : [
                2.9281392097473145,
                2.9281392097473145,
                2.9281392097473145
            ],
            "translation" : [
                1.9383124113082886,
                0.12867924571037292,
                -0.20136314630508423
            ]
        },
        {
            "mesh" : 0,
            "name" : "f03_r-partnership_o-chair",
            "rotation" : [
                0.10786014050245285,
                0.6988319158554077,
                -0.6988320350646973,
                0.10786012560129166
            ],
            "translation" : [
                0.599986732006073,
                0.35121026635169983,
                -2.795109748840332
            ]
        },
        {
            "mesh" : 7,
            "name" : "f03_r-partnership_o-table",
            "rotation" : [
                0.10786014050245285,
                0.6988319158554077,
                -0.6988320350646973,
                0.10786012560129166
            ],
            "translation" : [
                1.0578465461730957,
                0.7981855273246765,
                0.41369855403900146
            ]
        },
        {
            "mesh" : 10,
            "name" : "f03_r-showroom",
            "rotation" : [
                0.10786014050245285,
                0.6988319158554077,
                -0.6988320350646973,
                0.10786012560129166
            ],
            "translation" : [
                1.2922314405441284,
                1.2809038162231445,
                -0.16954344511032104
            ]
        },
        {
            "mesh" : 4,
            "name" : "f07_o-person114",
            "rotation" : [
                0.021837793290615082,
                0.7067694664001465,
                -0.706769585609436,
                0.021837789565324783
            ],
            "scale" : [
                2.9281389713287354,
                2.9281389713287354,
                2.9281392097473145
            ],
            "translation" : [
                0.09710723161697388,
                0.11969521641731262,
                1.2367298603057861
            ]
        },
        {
            "name" : "Lamp",
            "rotation" : [
                0.179824098944664,
                0.7324448227882385,
                -0.26519274711608887,
                0.6007168889045715
            ],
            "translation" : [
                21.882537841796875,
                -3.6056294441223145,
                0.9904528856277466
            ]
        }
    ],
    "scene" : 0,
    "scenes" : [
        {
            "name" : "Scene",
            "nodes" : [
                13,
                8,
                9,
                6,
                4,
                3,
                2,
                1,
                5,
                12,
                11,
                14,
                0,
                10,
                7
            ]
        }
    ]
}
