{
    "asset" : {
        "generator" : "Khronos glTF Blender I/O v0.9.35",
        "version" : "2.0"
    },
    "scene" : 0,
    "scenes" : [
        {
            "name" : "Scene",
            "nodes" : [
                0,
                1,
                2,
                3,
                4,
                5,
                6
            ]
        }
    ],
    "nodes" : [
        {
            "name" : "Light",
            "rotation" : [
                0.16907575726509094,
                0.7558803558349609,
                -0.27217137813568115,
                0.570947527885437
            ],
            "translation" : [
                4.076245307922363,
                -16.920000076293945,
                0
            ]
        },
        {
            "name" : "Sun"
        },
        {
            "mesh" : 0,
            "name" : "Lift1",
            "rotation" : [
                0,
                0.14780940115451813,
                0,
                0.9890158772468567
            ],
            "scale" : [
                0.5,
                1.2999999523162842,
                0.6000000238418579
            ],
            "translation" : [
                2.4800000190734863,
                27,
                2.630000352859497
            ]
        },
        {
            "mesh" : 1,
            "name" : "Hitachi_Main_With_texture.001",
            "rotation" : [
                0.7071068286895752,
                0,
                0,
                0.7071067094802856
            ],
            "translation" : [
                0,
                30,
                0
            ]
        },
        {
            "mesh" : 2,
            "name" : "Lift2",
            "rotation" : [
                0,
                0.14780940115451813,
                0,
                0.9890158772468567
            ],
            "scale" : [
                0.5,
                1.2999999523162842,
                0.6000000238418579
            ],
            "translation" : [
                5.099999904632568,
                27,
                1.7999999523162842
            ]
        },
        {
            "mesh" : 3,
            "name" : "Lift4",
            "rotation" : [
                0,
                0.15643447637557983,
                0,
                0.9876883625984192
            ],
            "scale" : [
                0.5,
                1.2999999523162842,
                0.6000000238418579
            ],
            "translation" : [
                3.5399999618530273,
                27,
                -3
            ]
        },
        {
            "mesh" : 4,
            "name" : "Lift3",
            "rotation" : [
                0,
                0.15643447637557983,
                0,
                0.9876883625984192
            ],
            "scale" : [
                0.5,
                1.2999999523162842,
                0.6000000238418579
            ],
            "translation" : [
                0.9699999690055847,
                27,
                -2.140000104904175
            ]
        }
    ],
    "materials" : [
        {
            "doubleSided" : true,
            "name" : "Material.001",
            "pbrMetallicRoughness" : {
                "baseColorFactor" : [
                    1.0000001192092896,
                    0,
                    1.862645149230957e-08,
                    1
                ],
                "metallicFactor" : 0,
                "roughnessFactor" : 0.5
            }
        },
        {
            "alphaMode" : "BLEND",
            "doubleSided" : true,
            "name" : "_Translucent_Glass_Tinted_1.001",
            "pbrMetallicRoughness" : {
                "baseColorFactor" : [
                    0.02745099924504757,
                    0.7882350087165833,
                    0.9411759972572327,
                    1
                ],
                "metallicFactor" : 0,
                "roughnessFactor" : 1
            }
        },
        {
            "alphaMode" : "BLEND",
            "doubleSided" : true,
            "name" : "Translucent_Glass_Tinted.001",
            "pbrMetallicRoughness" : {
                "baseColorTexture" : {
                    "index" : 0,
                    "texCoord" : 0
                },
                "metallicFactor" : 0,
                "roughnessFactor" : 1
            }
        },
        {
            "doubleSided" : true,
            "name" : "FrontColor.001",
            "pbrMetallicRoughness" : {
                "baseColorFactor" : [
                    1,
                    1,
                    1,
                    1
                ],
                "metallicFactor" : 0,
                "roughnessFactor" : 1
            }
        },
        {
            "doubleSided" : true,
            "name" : "Color_I04.001",
            "pbrMetallicRoughness" : {
                "baseColorFactor" : [
                    0.19607800245285034,
                    0.19607800245285034,
                    1,
                    1
                ],
                "metallicFactor" : 0,
                "roughnessFactor" : 1
            }
        },
        {
            "doubleSided" : true,
            "name" : "Material.002",
            "pbrMetallicRoughness" : {
                "baseColorFactor" : [
                    0,
                    1,
                    4.470348358154297e-08,
                    1
                ],
                "metallicFactor" : 0,
                "roughnessFactor" : 0.5
            }
        },
        {
            "doubleSided" : true,
            "name" : "Material.004",
            "pbrMetallicRoughness" : {
                "baseColorFactor" : [
                    0.7991032600402832,
                    0,
                    0.4513748288154602,
                    1
                ],
                "metallicFactor" : 0,
                "roughnessFactor" : 0.5
            }
        },
        {
            "doubleSided" : true,
            "name" : "Material.003",
            "pbrMetallicRoughness" : {
                "baseColorFactor" : [
                    0,
                    3.3527612686157227e-08,
                    0.9999998807907104,
                    1
                ],
                "metallicFactor" : 0,
                "roughnessFactor" : 0.5
            }
        }
    ],
    "meshes" : [
        {
            "name" : "Cube.001",
            "primitives" : [
                {
                    "attributes" : {
                        "POSITION" : 0,
                        "NORMAL" : 1,
                        "TANGENT" : 2,
                        "TEXCOORD_0" : 3
                    },
                    "indices" : 4,
                    "material" : 0
                }
            ]
        },
        {
            "name" : "Hitachi_Main_With_texture.001",
            "primitives" : [
                {
                    "attributes" : {
                        "POSITION" : 5,
                        "NORMAL" : 6,
                        "TEXCOORD_0" : 7
                    },
                    "indices" : 8,
                    "material" : 1
                },
                {
                    "attributes" : {
                        "POSITION" : 9,
                        "NORMAL" : 10,
                        "TEXCOORD_0" : 11
                    },
                    "indices" : 12,
                    "material" : 2
                },
                {
                    "attributes" : {
                        "POSITION" : 13,
                        "NORMAL" : 14,
                        "TEXCOORD_0" : 15
                    },
                    "indices" : 16,
                    "material" : 3
                },
                {
                    "attributes" : {
                        "POSITION" : 17,
                        "NORMAL" : 18,
                        "TEXCOORD_0" : 19
                    },
                    "indices" : 20,
                    "material" : 4
                }
            ]
        },
        {
            "name" : "Cube.002",
            "primitives" : [
                {
                    "attributes" : {
                        "POSITION" : 21,
                        "NORMAL" : 22,
                        "TANGENT" : 23,
                        "TEXCOORD_0" : 24
                    },
                    "indices" : 4,
                    "material" : 5
                }
            ]
        },
        {
            "name" : "Cube.003",
            "primitives" : [
                {
                    "attributes" : {
                        "POSITION" : 25,
                        "NORMAL" : 26,
                        "TANGENT" : 27,
                        "TEXCOORD_0" : 28
                    },
                    "indices" : 4,
                    "material" : 6
                }
            ]
        },
        {
            "name" : "Cube.004",
            "primitives" : [
                {
                    "attributes" : {
                        "POSITION" : 29,
                        "NORMAL" : 30,
                        "TANGENT" : 31,
                        "TEXCOORD_0" : 32
                    },
                    "indices" : 4,
                    "material" : 7
                }
            ]
        }
    ],
    "textures" : [
        {
            "source" : 0
        }
    ],
    "images" : [
        {
            "mimeType" : "image/jpeg",
            "name" : "Translucent_Glass_Tinted",
            "uri" : "Translucent_Glass_Tinted.jpg"
        }
    ],
    "accessors" : [
        {
            "bufferView" : 0,
            "componentType" : 5126,
            "count" : 24,
            "max" : [
                1,
                1,
                1
            ],
            "min" : [
                -1,
                -1,
                -1
            ],
            "type" : "VEC3"
        },
        {
            "bufferView" : 1,
            "componentType" : 5126,
            "count" : 24,
            "type" : "VEC3"
        },
        {
            "bufferView" : 2,
            "componentType" : 5126,
            "count" : 24,
            "type" : "VEC4"
        },
        {
            "bufferView" : 3,
            "componentType" : 5126,
            "count" : 24,
            "type" : "VEC2"
        },
        {
            "bufferView" : 4,
            "componentType" : 5123,
            "count" : 36,
            "type" : "SCALAR"
        },
        {
            "bufferView" : 5,
            "componentType" : 5126,
            "count" : 43444,
            "max" : [
                59.95830154418945,
                112.65899658203125,
                29.9335994720459
            ],
            "min" : [
                -28.294700622558594,
                -34.33140182495117,
                -10.436400413513184
            ],
            "type" : "VEC3"
        },
        {
            "bufferView" : 6,
            "componentType" : 5126,
            "count" : 43444,
            "type" : "VEC3"
        },
        {
            "bufferView" : 7,
            "componentType" : 5126,
            "count" : 43444,
            "type" : "VEC2"
        },
        {
            "bufferView" : 8,
            "componentType" : 5123,
            "count" : 89334,
            "type" : "SCALAR"
        },
        {
            "bufferView" : 9,
            "componentType" : 5126,
            "count" : 4,
            "max" : [
                -1.0833300352096558,
                2.5962600708007812,
                29.88360023498535
            ],
            "min" : [
                -1.9339699745178223,
                -0.07728700339794159,
                26.173599243164062
            ],
            "type" : "VEC3"
        },
        {
            "bufferView" : 10,
            "componentType" : 5126,
            "count" : 4,
            "type" : "VEC3"
        },
        {
            "bufferView" : 11,
            "componentType" : 5126,
            "count" : 4,
            "type" : "VEC2"
        },
        {
            "bufferView" : 12,
            "componentType" : 5123,
            "count" : 6,
            "type" : "SCALAR"
        },
        {
            "bufferView" : 13,
            "componentType" : 5126,
            "count" : 16142,
            "max" : [
                23.770200729370117,
                22.46109962463379,
                20.52359962463379
            ],
            "min" : [
                -9.647990226745605,
                -31.86949920654297,
                3.4335999488830566
            ],
            "type" : "VEC3"
        },
        {
            "bufferView" : 14,
            "componentType" : 5126,
            "count" : 16142,
            "type" : "VEC3"
        },
        {
            "bufferView" : 15,
            "componentType" : 5126,
            "count" : 16142,
            "type" : "VEC2"
        },
        {
            "bufferView" : 16,
            "componentType" : 5123,
            "count" : 32208,
            "type" : "SCALAR"
        },
        {
            "bufferView" : 17,
            "componentType" : 5126,
            "count" : 96,
            "max" : [
                5.777719974517822,
                3.3751299381256104,
                4.133600234985352
            ],
            "min" : [
                0.2775309979915619,
                -3.7342700958251953,
                1.4636000394821167
            ],
            "type" : "VEC3"
        },
        {
            "bufferView" : 18,
            "componentType" : 5126,
            "count" : 96,
            "type" : "VEC3"
        },
        {
            "bufferView" : 19,
            "componentType" : 5126,
            "count" : 96,
            "type" : "VEC2"
        },
        {
            "bufferView" : 20,
            "componentType" : 5123,
            "count" : 144,
            "type" : "SCALAR"
        },
        {
            "bufferView" : 21,
            "componentType" : 5126,
            "count" : 24,
            "max" : [
                1,
                1,
                1
            ],
            "min" : [
                -1,
                -1,
                -1
            ],
            "type" : "VEC3"
        },
        {
            "bufferView" : 22,
            "componentType" : 5126,
            "count" : 24,
            "type" : "VEC3"
        },
        {
            "bufferView" : 23,
            "componentType" : 5126,
            "count" : 24,
            "type" : "VEC4"
        },
        {
            "bufferView" : 24,
            "componentType" : 5126,
            "count" : 24,
            "type" : "VEC2"
        },
        {
            "bufferView" : 25,
            "componentType" : 5126,
            "count" : 24,
            "max" : [
                1,
                1,
                1
            ],
            "min" : [
                -1,
                -1,
                -1
            ],
            "type" : "VEC3"
        },
        {
            "bufferView" : 26,
            "componentType" : 5126,
            "count" : 24,
            "type" : "VEC3"
        },
        {
            "bufferView" : 27,
            "componentType" : 5126,
            "count" : 24,
            "type" : "VEC4"
        },
        {
            "bufferView" : 28,
            "componentType" : 5126,
            "count" : 24,
            "type" : "VEC2"
        },
        {
            "bufferView" : 29,
            "componentType" : 5126,
            "count" : 24,
            "max" : [
                1,
                1,
                1
            ],
            "min" : [
                -1,
                -1,
                -1
            ],
            "type" : "VEC3"
        },
        {
            "bufferView" : 30,
            "componentType" : 5126,
            "count" : 24,
            "type" : "VEC3"
        },
        {
            "bufferView" : 31,
            "componentType" : 5126,
            "count" : 24,
            "type" : "VEC4"
        },
        {
            "bufferView" : 32,
            "componentType" : 5126,
            "count" : 24,
            "type" : "VEC2"
        }
    ],
    "bufferViews" : [
        {
            "buffer" : 0,
            "byteLength" : 288,
            "byteOffset" : 0
        },
        {
            "buffer" : 0,
            "byteLength" : 288,
            "byteOffset" : 288
        },
        {
            "buffer" : 0,
            "byteLength" : 384,
            "byteOffset" : 576
        },
        {
            "buffer" : 0,
            "byteLength" : 192,
            "byteOffset" : 960
        },
        {
            "buffer" : 0,
            "byteLength" : 72,
            "byteOffset" : 1152
        },
        {
            "buffer" : 0,
            "byteLength" : 521328,
            "byteOffset" : 1224
        },
        {
            "buffer" : 0,
            "byteLength" : 521328,
            "byteOffset" : 522552
        },
        {
            "buffer" : 0,
            "byteLength" : 347552,
            "byteOffset" : 1043880
        },
        {
            "buffer" : 0,
            "byteLength" : 178668,
            "byteOffset" : 1391432
        },
        {
            "buffer" : 0,
            "byteLength" : 48,
            "byteOffset" : 1570100
        },
        {
            "buffer" : 0,
            "byteLength" : 48,
            "byteOffset" : 1570148
        },
        {
            "buffer" : 0,
            "byteLength" : 32,
            "byteOffset" : 1570196
        },
        {
            "buffer" : 0,
            "byteLength" : 12,
            "byteOffset" : 1570228
        },
        {
            "buffer" : 0,
            "byteLength" : 193704,
            "byteOffset" : 1570240
        },
        {
            "buffer" : 0,
            "byteLength" : 193704,
            "byteOffset" : 1763944
        },
        {
            "buffer" : 0,
            "byteLength" : 129136,
            "byteOffset" : 1957648
        },
        {
            "buffer" : 0,
            "byteLength" : 64416,
            "byteOffset" : 2086784
        },
        {
            "buffer" : 0,
            "byteLength" : 1152,
            "byteOffset" : 2151200
        },
        {
            "buffer" : 0,
            "byteLength" : 1152,
            "byteOffset" : 2152352
        },
        {
            "buffer" : 0,
            "byteLength" : 768,
            "byteOffset" : 2153504
        },
        {
            "buffer" : 0,
            "byteLength" : 288,
            "byteOffset" : 2154272
        },
        {
            "buffer" : 0,
            "byteLength" : 288,
            "byteOffset" : 2154560
        },
        {
            "buffer" : 0,
            "byteLength" : 288,
            "byteOffset" : 2154848
        },
        {
            "buffer" : 0,
            "byteLength" : 384,
            "byteOffset" : 2155136
        },
        {
            "buffer" : 0,
            "byteLength" : 192,
            "byteOffset" : 2155520
        },
        {
            "buffer" : 0,
            "byteLength" : 288,
            "byteOffset" : 2155712
        },
        {
            "buffer" : 0,
            "byteLength" : 288,
            "byteOffset" : 2156000
        },
        {
            "buffer" : 0,
            "byteLength" : 384,
            "byteOffset" : 2156288
        },
        {
            "buffer" : 0,
            "byteLength" : 192,
            "byteOffset" : 2156672
        },
        {
            "buffer" : 0,
            "byteLength" : 288,
            "byteOffset" : 2156864
        },
        {
            "buffer" : 0,
            "byteLength" : 288,
            "byteOffset" : 2157152
        },
        {
            "buffer" : 0,
            "byteLength" : 384,
            "byteOffset" : 2157440
        },
        {
            "buffer" : 0,
            "byteLength" : 192,
            "byteOffset" : 2157824
        }
    ],
    "buffers" : [
        {
            "byteLength" : 2158016,
            "uri" : "Hitachi_building.bin"
        }
    ]
}
