{
      Building: {
          name: 'Building',
          url: './Content/assets/digitaltwin/bldnew/has_building_gta.gltf',
          author: '',
          authorURL: ' ',
          cameraPos: new THREE.Vector3( 73.62, 22.46, 19.86 ),
          objectRotation: new THREE.Euler( 0, 0, 0 ),
          center: new THREE.Vector3( -40.84, 7.00, -27.56 ),
          addLights: true,
          addGround: false,
          shadows: false,
          extensions: [ 'glTF', 'glTF-Embedded', 'glTF-pbrSpecularGlossiness', 'glTF-Binary', 'glTF-Draco' ]
      },
      Floor7: {
          name: 'Floor7',
          url: './Content/assets/digitaltwin/bldnew/has_7f.gltf',
          author: '',
          authorURL: ' ',
          cameraPos: new THREE.Vector3(37.806829439468196, 39.18679854441471, -11.558161130667687),
          center: new THREE.Vector3(-6.057691525469879, -2, -8.329598276663239),
          objectRotation: new THREE.Euler( 0, 0, 0 ),
          addLights: true,
          addGround: false,
          shadows: false,
          extensions: [ 'glTF', 'glTF-Embedded', 'glTF-pbrSpecularGlossiness', 'glTF-Binary', 'glTF-Draco' ]
      },
      Floor3: {
          name: 'Floor3',
          url: './Content/assets/digitaltwin/bldnew/has_3f.gltf',
          author: '',
          authorURL: ' ',
          cameraPos: new THREE.Vector3(-42.60291382563865, 50.58694958289484, 22.569930624584487 ),
          center: new THREE.Vector3(-1.5639367272031353, 4.177497222162857, -2.826041162859494 ),
          objectRotation: new THREE.Euler( 0, 0, 0 ),
          addLights: true,
          addGround: false,
          shadows: false,
          extensions: [ 'glTF', 'glTF-Embedded', 'glTF-pbrSpecularGlossiness', 'glTF-Binary', 'glTF-Draco' ]
      },
      Floor3_Floor7: {
          name: 'Floor3_Floor7',
          url: './Content/assets/digitaltwin/bldnew/has_3f_7f.gltf',
          author: '',
          authorURL: ' ',
          cameraPos: new THREE.Vector3(82.42108342419614, 41.41963132851245, -5.776255633779755),
          center: new THREE.Vector3(-25.778652291384603, 3.745, -33.418841921304),
          objectRotation: new THREE.Euler(0, 0, 0),
          addLights: true,
          addGround: false,
          shadows: false,
          extensions: ['glTF', 'glTF-Embedded', 'glTF-pbrSpecularGlossiness', 'glTF-Binary', 'glTF-Draco']
      },
      Floor3_RoomPartnership: {
          name: 'Floor3_RoomPartnership',
          url: './Content/assets/digitaltwin/bldnew/has_3f_partnership.gltf',
          author: '',
          authorURL: ' ',
          cameraPos: new THREE.Vector3(-3.95, 7.36, -0.65),
          center: new THREE.Vector3(0,0,0),
          objectRotation: new THREE.Euler(0, 0, 0),
          addLights: true,
          addGround: false,
          shadows: false,
          extensions: ['glTF', 'glTF-Embedded', 'glTF-pbrSpecularGlossiness', 'glTF-Binary', 'glTF-Draco']
      },
      Floor7_RoomRnd: {
          name: 'Floor7_RoomRnd',
          url: './Content/assets/digitaltwin/bldnew/has_7f_rnd.gltf',
          author: '',
          authorURL: ' ',
          cameraPos: new THREE.Vector3(-3.95, 7.36, -0.65),
          center: new THREE.Vector3(0,0,0),
          objectRotation: new THREE.Euler(0, 0, 0),
          addLights: true,
          addGround: false,
          shadows: false,
          extensions: ['glTF', 'glTF-Embedded', 'glTF-pbrSpecularGlossiness', 'glTF-Binary', 'glTF-Draco']
      },
      Floor3_RoomCustomerExperienceCenter: {
          name: 'Floor3_RoomCustomerExperienceCenter',
          "url": "./Content/assets/digitaltwin/bldnew/has_3f_customer_experience_center.gltf",
          author: '',
          authorURL: ' ',
          cameraPos: new THREE.Vector3(-3.95, 7.36, -0.65),
          center: new THREE.Vector3(0,0,0),
          objectRotation: new THREE.Euler(0, 0, 0),
          addLights: true,
          addGround: false,
          shadows: false,
          extensions: ['glTF', 'glTF-Embedded', 'glTF-pbrSpecularGlossiness', 'glTF-Binary', 'glTF-Draco']
      }
} 